lab3/simulation/qsim/mux2x1.msim.vcd
$comment
	File created using the following command:
		vcd file mux2x1.msim.vcd -direction
$end
$date
	Fri Mar 22 13:09:22 2024
$end
$version
	ModelSim Version 10.1d
$end
$timescale
	1ps
$end
$scope module mux2x1_vlg_vec_tst $end
$var reg 1 ! I0 $end
$var reg 1 " I1 $end
$var reg 1 # S0 $end
$var wire 1 $ d $end
$var wire 1 % sampler $end
$scope module i1 $end
$var wire 1 & gnd $end
$var wire 1 ' vcc $end
$var wire 1 ( unknown $end
$var tri1 1 ) devclrn $end
$var tri1 1 * devpor $end
$var tri1 1 + devoe $end
$var wire 1 , I1~combout $end
$var wire 1 - S0~combout $end
$var wire 1 . I0~combout $end
$var wire 1 / d~0_combout $end
$upscope $end
$upscope $end
$enddefinitions $end
#0
$dumpvars
0!
0"
0#
0$
x%
0&
1'
x(
1)
1*
1+
0,
0-
0.
0/
$end
#100000
1#
1-
0%
#200000
1!
0#
1.
0-
1%
1/
1$
#300000
1#
1-
0%
0/
0$
#400000
1"
0!
0#
1,
0.
0-
1%
#500000
1#
1-
0%
1/
1$
#600000
1!
0#
1.
0-
1%
#700000
1#
1-
0%
#800000
0"
0!
0#
0,
0.
0-
1%
0/
0$
#900000
1#
1-
0%
