incrementador-4bit/simulation/qsim/contador.msim.vcd
$comment
	File created using the following command:
		vcd file contador.msim.vcd -direction
$end
$date
	Fri Apr 19 09:31:04 2024
$end
$version
	ModelSim Version 10.1d
$end
$timescale
	1ps
$end
$scope module contador_vlg_vec_tst $end
$var reg 1 ! clk $end
$var reg 1 " cnt $end
$var reg 4 # data [3:0] $end
$var reg 1 $ ld $end
$var reg 1 % reset $end
$var wire 1 & q [3] $end
$var wire 1 ' q [2] $end
$var wire 1 ( q [1] $end
$var wire 1 ) q [0] $end
$var wire 1 * tc $end
$var wire 1 + sampler $end
$scope module i1 $end
$var wire 1 , gnd $end
$var wire 1 - vcc $end
$var wire 1 . unknown $end
$var tri1 1 / devclrn $end
$var tri1 1 0 devpor $end
$var tri1 1 1 devoe $end
$var wire 1 2 clk~combout $end
$var wire 1 3 clk~clkctrl_outclk $end
$var wire 1 4 reset~combout $end
$var wire 1 5 cnt~combout $end
$var wire 1 6 ld~combout $end
$var wire 1 7 tc~1_combout $end
$var wire 1 8 qv[0]~3_combout $end
$var wire 1 9 Add0~0_combout $end
$var wire 1 : qv[1]~2_combout $end
$var wire 1 ; qv[1]~4_combout $end
$var wire 1 < reset~clkctrl_outclk $end
$var wire 1 = Add0~1_combout $end
$var wire 1 > qv[2]~5_combout $end
$var wire 1 ? qv[2]~6_combout $end
$var wire 1 @ Add0~2_combout $end
$var wire 1 A qv[3]~7_combout $end
$var wire 1 B qv[3]~8_combout $end
$var wire 1 C LessThan0~0_combout $end
$var wire 1 D qv[0]~0_combout $end
$var wire 1 E qv[0]~1_combout $end
$var wire 1 F tc~0_combout $end
$var wire 1 G tc~2_combout $end
$var wire 1 H tc~reg0_regout $end
$var wire 1 I data~combout [3] $end
$var wire 1 J data~combout [2] $end
$var wire 1 K data~combout [1] $end
$var wire 1 L data~combout [0] $end
$var wire 1 M qv [3] $end
$var wire 1 N qv [2] $end
$var wire 1 O qv [1] $end
$var wire 1 P qv [0] $end
$upscope $end
$upscope $end
$enddefinitions $end
#0
$dumpvars
0!
0"
b1100 #
0$
0%
0)
0(
0'
0&
0*
x+
0,
1-
x.
1/
10
11
02
03
04
05
06
07
08
09
0:
0;
0<
0=
0>
0?
0@
0A
0B
0C
0D
0E
0F
0G
0H
0L
0K
1J
1I
0P
0O
0N
0M
$end
#12500
1!
12
13
0+
#25000
1"
0!
15
02
03
1+
1D
18
17
1E
#37500
1!
12
13
0+
1P
0D
19
1)
0E
1:
1;
#50000
0"
0!
05
02
03
1+
1D
08
07
1E
0;
#62500
1!
12
13
0+
#75000
1"
0!
15
02
03
1+
0D
18
17
0E
1;
#80000
1$
16
0+
1A
1>
0:
07
1B
1?
0;
#87500
1!
12
13
1+
0P
1M
1N
1D
1@
1=
09
0)
1&
1'
#100000
0"
0!
05
02
03
0+
0D
#112500
1!
12
13
1+
#120000
0$
06
0+
08
#125000
1"
0!
15
02
03
1+
1D
18
17
1E
#137500
1!
12
13
0+
1P
0D
19
1)
0E
1:
1;
#150000
0"
0!
05
02
03
1+
1D
08
07
1E
0;
#162500
1!
12
13
0+
#175000
1"
0!
15
02
03
1+
0D
18
17
0E
1;
#187500
1!
12
13
0+
0P
1O
1F
1D
0)
1(
1G
1E
#200000
0"
0!
05
02
03
1+
0D
08
07
0E
0G
#212500
1!
12
13
0+
#225000
1"
0!
15
02
03
1+
1D
18
17
1E
1G
#237500
1!
12
13
0+
1H
1P
0F
0D
1C
0@
0=
09
1*
1)
0E
0:
0;
#250000
0"
0!
05
02
03
1+
07
#262500
1!
12
13
0+
0P
0O
1D
0C
1@
1=
0)
0(
1E
0D
08
0E
#275000
1"
0!
15
02
03
1+
1D
18
17
1E
0G
#287500
1!
12
13
0+
0H
1P
0D
19
0*
1)
0E
1:
1;
#300000
0"
0!
05
02
03
1+
1D
08
07
1E
0;
#312500
1!
12
13
0+
#325000
1"
0!
15
02
03
1+
0D
18
17
0E
1;
#337500
1!
12
13
0+
0P
1O
1F
1D
0)
1(
1G
1E
#350000
0"
0!
05
02
03
1+
0D
08
07
0E
0G
#362500
1!
12
13
0+
#375000
1"
0!
15
02
03
1+
1D
18
17
1E
1G
#380000
1%
14
1<
0+
07
0G
0M
0N
0O
0F
0@
0=
09
0&
0'
0(
0A
0>
0:
0B
0?
0;
#387500
1!
12
13
1+
#400000
0"
0!
05
02
03
0+
0D
08
0E
#412500
1!
12
13
1+
#420000
0%
04
0<
0+
#425000
1"
0!
15
02
03
1+
1D
18
17
1E
#437500
1!
12
13
0+
1P
0D
19
1)
0E
1:
1;
#450000
0"
0!
05
02
03
1+
1D
08
07
1E
0;
#462500
1!
12
13
0+
#475000
1"
0!
15
02
03
1+
0D
18
17
0E
1;
#487500
1!
12
13
0+
0P
1O
1D
0)
1(
1E
#500000
0"
0!
05
02
03
1+
0D
08
07
0E
#512500
1!
12
13
0+
#525000
1"
0!
15
02
03
1+
1D
18
17
1E
#537500
1!
12
13
0+
1P
0D
1=
09
1)
0E
1>
0:
1?
0;
#550000
0"
0!
05
02
03
1+
1D
08
07
1E
0?
1;
#562500
1!
12
13
0+
#575000
1"
0!
15
02
03
1+
0D
18
17
0E
1?
0;
#587500
1!
12
13
0+
0P
1N
0O
1D
0)
1'
0(
1E
#600000
0"
0!
05
02
03
1+
0D
08
07
0E
#612500
1!
12
13
0+
#625000
1"
0!
15
02
03
1+
1D
18
17
1E
#637500
1!
12
13
0+
1P
0D
19
1)
0E
1:
1;
#650000
0"
0!
05
02
03
1+
1D
08
07
1E
0;
#662500
1!
12
13
0+
#675000
1"
0!
15
02
03
1+
0D
18
17
0E
1;
#687500
1!
12
13
0+
0P
1O
1D
0)
1(
1E
#700000
0"
0!
05
02
03
1+
0D
08
07
0E
#712500
1!
12
13
0+
#725000
1"
0!
15
02
03
1+
1D
18
17
1E
#737500
1!
12
13
0+
1P
0D
1@
0=
09
1)
0E
1A
0>
0:
1B
0?
0;
#750000
0"
0!
05
02
03
1+
1D
08
07
1E
0B
1?
1;
#762500
1!
12
13
0+
#775000
1"
0!
15
02
03
1+
0D
18
17
0E
1B
0?
0;
#787500
1!
12
13
0+
0P
1M
0N
0O
1D
0)
1&
0'
0(
1E
#800000
0"
0!
05
02
03
1+
0D
08
07
0E
#812500
1!
12
13
0+
#825000
1"
0!
15
02
03
1+
1D
18
17
1E
#837500
1!
12
13
0+
1P
0D
19
1)
0E
1:
1;
#850000
0"
0!
05
02
03
1+
1D
08
07
1E
0;
#862500
1!
12
13
0+
#875000
1"
0!
15
02
03
1+
0D
18
17
0E
1;
#887500
1!
12
13
0+
0P
1O
1D
0)
1(
1E
#900000
0"
0!
05
02
03
1+
0D
08
07
0E
#912500
1!
12
13
0+
#925000
1"
0!
15
02
03
1+
1D
18
17
1E
#937500
1!
12
13
0+
1P
0D
1=
09
1)
0E
1>
0:
1?
0;
#950000
0"
0!
05
02
03
1+
1D
08
07
1E
0?
1;
#962500
1!
12
13
0+
#975000
1"
0!
15
02
03
1+
0D
18
17
0E
1?
0;
#980000
b100 #
b0 #
0J
0I
0+
#987500
1!
12
13
1+
0P
1N
0O
1D
0)
1'
0(
1E
