incrementador-4bit/simulation/qsim/contador.msim.vcd
$comment
	File created using the following command:
		vcd file contador.msim.vcd -direction
$end
$date
	Thu Apr 18 20:58:33 2024
$end
$version
	ModelSim Version 10.1d
$end
$timescale
	1ps
$end
$scope module contador_vlg_vec_tst $end
$var reg 1 ! clk $end
$var reg 1 " cnt $end
$var reg 4 # data [3:0] $end
$var reg 1 $ ld $end
$var reg 1 % reset $end
$var wire 1 & q [3] $end
$var wire 1 ' q [2] $end
$var wire 1 ( q [1] $end
$var wire 1 ) q [0] $end
$var wire 1 * tc $end
$var wire 1 + sampler $end
$scope module i1 $end
$var wire 1 , gnd $end
$var wire 1 - vcc $end
$var wire 1 . unknown $end
$var tri1 1 / devclrn $end
$var tri1 1 0 devpor $end
$var tri1 1 1 devoe $end
$var wire 1 2 tc~1_combout $end
$var wire 1 3 clk~combout $end
$var wire 1 4 clk~clkctrl_outclk $end
$var wire 1 5 ld~combout $end
$var wire 1 6 qv~0_combout $end
$var wire 1 7 reset~combout $end
$var wire 1 8 reset~clkctrl_outclk $end
$var wire 1 9 cnt~combout $end
$var wire 1 : qv[0]~1_combout $end
$var wire 1 ; qv~2_combout $end
$var wire 1 < qv~3_combout $end
$var wire 1 = qv~4_combout $end
$var wire 1 > Add0~0_combout $end
$var wire 1 ? qv~5_combout $end
$var wire 1 @ tc~0_combout $end
$var wire 1 A tc~2_combout $end
$var wire 1 B tc~reg0_regout $end
$var wire 1 C data~combout [3] $end
$var wire 1 D data~combout [2] $end
$var wire 1 E data~combout [1] $end
$var wire 1 F data~combout [0] $end
$var wire 1 G qv [3] $end
$var wire 1 H qv [2] $end
$var wire 1 I qv [1] $end
$var wire 1 J qv [0] $end
$upscope $end
$upscope $end
$enddefinitions $end
#0
$dumpvars
0!
0"
b0 #
0$
0%
1)
1(
1'
1&
0*
x+
0,
1-
x.
1/
10
11
12
03
04
05
16
07
08
09
1:
0;
1<
0=
0>
0?
0@
0A
0B
0F
0E
0D
0C
0J
0I
0H
0G
$end
#10000
1!
13
14
0+
1J
1;
06
0)
#20000
0!
03
04
1+
#30000
1!
13
14
0+
1I
0J
16
0(
1)
#40000
0!
03
04
1+
#50000
1!
13
14
0+
1J
0<
0;
06
0)
1=
#60000
1$
0!
15
03
04
1+
1?
1;
16
02
#70000
1!
13
14
0+
1G
1H
0&
0'
#80000
0!
03
04
1+
#90000
0$
1!
05
13
14
0+
0?
1<
0;
06
12
0=
#100000
0!
03
04
1+
#110000
1!
13
14
0+
0G
0H
0I
0J
16
1&
1'
1(
1)
#120000
0!
03
04
1+
#130000
1!
13
14
0+
1J
1;
06
0)
#140000
0!
03
04
1+
#150000
1!
13
14
0+
1I
0J
16
0(
1)
#160000
0!
03
04
1+
#170000
1!
13
14
0+
1J
0<
0;
06
0)
1=
#180000
0!
03
04
1+
#190000
1!
13
14
0+
1H
0I
0J
16
0'
1(
1)
#200000
0!
03
04
1+
#210000
1!
13
14
0+
1J
1;
06
0)
#220000
0!
03
04
1+
#230000
1!
13
14
0+
1I
0J
16
0(
1)
#240000
0!
03
04
1+
#250000
1!
13
14
0+
1J
1>
1<
0;
06
0)
1?
0=
#260000
0!
03
04
1+
#270000
1!
13
14
0+
1G
0H
0I
0J
16
0&
1'
1(
1)
#280000
0!
03
04
1+
#290000
1!
13
14
0+
1J
1;
06
0)
#300000
0!
03
04
1+
#310000
1!
13
14
0+
1I
0J
16
0(
1)
#320000
0!
03
04
1+
#330000
1!
13
14
0+
1J
0<
0;
06
0)
1=
#340000
0!
03
04
1+
#350000
1!
13
14
0+
1H
0I
0J
16
0'
1(
1)
#360000
0!
03
04
1+
#370000
1!
13
14
0+
1J
1@
1;
06
0)
#380000
0!
03
04
1+
#390000
1!
13
14
0+
1I
0J
1A
16
0(
1)
#400000
0!
03
04
1+
#410000
1!
13
14
0+
1B
1J
0A
0@
0>
1<
0;
06
1*
0)
0?
0=
#420000
0!
03
04
1+
#430000
1!
13
14
0+
0B
0G
0H
0I
0J
16
0*
1&
1'
1(
1)
#440000
0!
03
04
1+
#450000
1!
13
14
0+
1J
1;
06
0)
#460000
0!
03
04
1+
#470000
1!
13
14
0+
1I
0J
16
0(
1)
#480000
0!
03
04
1+
#490000
1!
13
14
0+
1J
0<
0;
06
0)
1=
#500000
0!
03
04
1+
#510000
1!
13
14
0+
1H
0I
0J
16
0'
1(
1)
#520000
0!
03
04
1+
#530000
1!
13
14
0+
1J
1;
06
0)
#540000
0!
03
04
1+
#550000
1!
13
14
0+
1I
0J
16
0(
1)
#560000
0!
03
04
1+
#570000
1!
13
14
0+
1J
1>
1<
0;
06
0)
1?
0=
#580000
0!
03
04
1+
#590000
1!
13
14
0+
1G
0H
0I
0J
16
0&
1'
1(
1)
#600000
0!
03
04
1+
#610000
1!
13
14
0+
1J
1;
06
0)
#620000
0!
03
04
1+
#630000
1!
13
14
0+
1I
0J
16
0(
1)
#640000
0!
03
04
1+
#650000
1!
13
14
0+
1J
0<
0;
06
0)
1=
#660000
0!
03
04
1+
#670000
1!
13
14
0+
1H
0I
0J
16
0'
1(
1)
#680000
0!
03
04
1+
#690000
1!
13
14
0+
1J
1@
1;
06
0)
#700000
0!
03
04
1+
#710000
1!
13
14
0+
1I
0J
1A
16
0(
1)
#720000
0!
03
04
1+
#730000
1!
13
14
0+
1B
1J
0A
0@
0>
1<
0;
06
1*
0)
0?
0=
#740000
0!
03
04
1+
#750000
1!
13
14
0+
0B
0G
0H
0I
0J
16
0*
1&
1'
1(
1)
#760000
0!
03
04
1+
#770000
1!
13
14
0+
1J
1;
06
0)
#780000
0!
03
04
1+
#790000
1!
13
14
0+
1I
0J
16
0(
1)
#800000
0!
03
04
1+
#810000
1!
13
14
0+
1J
0<
0;
06
0)
1=
#820000
0!
03
04
1+
#830000
1!
13
14
0+
1H
0I
0J
16
0'
1(
1)
#840000
0!
03
04
1+
#850000
1!
13
14
0+
1J
1;
06
0)
#860000
0!
03
04
1+
#870000
1!
13
14
0+
1I
0J
16
0(
1)
#880000
0!
03
04
1+
#890000
1!
13
14
0+
1J
1>
1<
0;
06
0)
1?
0=
#900000
0!
03
04
1+
#910000
1!
13
14
0+
1G
0H
0I
0J
16
0&
1'
1(
1)
#920000
0!
03
04
1+
#930000
1!
13
14
0+
1J
1;
06
0)
#940000
0!
03
04
1+
#950000
1!
13
14
0+
1I
0J
16
0(
1)
#960000
0!
03
04
1+
#970000
1!
13
14
0+
1J
0<
0;
06
0)
1=
#980000
0!
03
04
1+
#990000
1!
13
14
0+
1H
0I
0J
16
0'
1(
1)
