mux4x1-comportamental/simulation/qsim/mux4x1c.msim.vcd
$comment
	File created using the following command:
		vcd file mux4x1c.msim.vcd -direction
$end
$date
	Fri Apr 05 09:36:22 2024
$end
$version
	ModelSim Version 10.1d
$end
$timescale
	1ps
$end
$scope module mux4x1c_vlg_vec_tst $end
$var reg 1 ! I0 $end
$var reg 1 " I1 $end
$var reg 1 # I2 $end
$var reg 1 $ I3 $end
$var reg 1 % S0 $end
$var reg 1 & S1 $end
$var wire 1 ' d $end
$var wire 1 ( sampler $end
$scope module i1 $end
$var wire 1 ) gnd $end
$var wire 1 * vcc $end
$var wire 1 + unknown $end
$var tri1 1 , devclrn $end
$var tri1 1 - devpor $end
$var tri1 1 . devoe $end
$var wire 1 / S0~combout $end
$var wire 1 0 I3~combout $end
$var wire 1 1 I1~combout $end
$var wire 1 2 I0~combout $end
$var wire 1 3 S1~combout $end
$var wire 1 4 Mux0~0_combout $end
$var wire 1 5 I2~combout $end
$var wire 1 6 Mux0~1_combout $end
$upscope $end
$upscope $end
$enddefinitions $end
#0
$dumpvars
0!
0"
0#
0$
0%
1&
0'
x(
0)
1*
x+
1,
1-
1.
0/
00
01
02
13
04
05
06
$end
#50000
1!
12
0(
#100000
1"
1%
0!
11
1/
02
1(
14
#150000
1!
12
0(
#200000
1#
0&
0"
0%
0!
15
03
01
0/
02
1(
16
04
06
1'
0'
#250000
1!
12
0(
14
16
1'
#300000
1"
0!
11
02
1(
04
06
0'
#350000
1!
12
0(
14
16
1'
#400000
1$
0#
0"
0!
10
05
01
02
1(
04
06
0'
#450000
1!
12
0(
14
16
1'
#500000
1%
1"
0!
1/
11
02
1(
#550000
1!
12
0(
#600000
1&
1#
0"
0!
13
15
01
02
1(
#650000
1!
12
0(
#700000
0%
1"
0!
0/
11
02
1(
04
#750000
1!
12
0(
#800000
0$
0#
1%
0"
0!
00
05
1/
01
02
1(
06
14
0'
#850000
1!
12
0(
#900000
1"
0!
11
02
1(
#950000
1!
12
0(
