calc2/simulation/qsim/calc.msim.vcd
$comment
	File created using the following command:
		vcd file calc.msim.vcd -direction
$end
$date
	Wed Jul 17 17:42:19 2024
$end
$version
	ModelSim Version 10.1d
$end
$timescale
	1ps
$end
$scope module calc_vlg_vec_tst $end
$var reg 1 ! a0 $end
$var reg 1 " a1 $end
$var reg 1 # a2 $end
$var reg 1 $ a3 $end
$var reg 1 % a4 $end
$var reg 1 & a5 $end
$var reg 1 ' b0 $end
$var reg 1 ( b1 $end
$var reg 1 ) b2 $end
$var reg 1 * b3 $end
$var reg 1 + b4 $end
$var reg 1 , b5 $end
$var reg 1 - clk $end
$var reg 1 . load $end
$var reg 1 / sub $end
$var wire 1 0 s0 $end
$var wire 1 1 s1 $end
$var wire 1 2 s2 $end
$var wire 1 3 s3 $end
$var wire 1 4 s4 $end
$var wire 1 5 s5 $end
$var wire 1 6 sampler $end
$scope module i1 $end
$var wire 1 7 gnd $end
$var wire 1 8 vcc $end
$var wire 1 9 unknown $end
$var tri1 1 : devclrn $end
$var tri1 1 ; devpor $end
$var tri1 1 < devoe $end
$var wire 1 = u0|cout~0_combout $end
$var wire 1 > u1|cout~0_combout $end
$var wire 1 ? u2|cout~0_combout $end
$var wire 1 @ u4|cout~0_combout $end
$var wire 1 A a1~combout $end
$var wire 1 B clk~combout $end
$var wire 1 C clk~clkctrl_outclk $end
$var wire 1 D a5~combout $end
$var wire 1 E b5~combout $end
$var wire 1 F u0|sum~0_combout $end
$var wire 1 G load~combout $end
$var wire 1 H r0|q5~regout $end
$var wire 1 I a4~combout $end
$var wire 1 J sub~combout $end
$var wire 1 K b4~combout $end
$var wire 1 L u1|sum~combout $end
$var wire 1 M r0|q4~regout $end
$var wire 1 N b3~combout $end
$var wire 1 O a3~combout $end
$var wire 1 P u2|sum~0_combout $end
$var wire 1 Q r0|q3~regout $end
$var wire 1 R a2~combout $end
$var wire 1 S b2~combout $end
$var wire 1 T u3|sum~0_combout $end
$var wire 1 U r0|q2~regout $end
$var wire 1 V u3|cout~0_combout $end
$var wire 1 W b1~combout $end
$var wire 1 X u4|sum~0_combout $end
$var wire 1 Y r0|q1~regout $end
$var wire 1 Z a0~combout $end
$var wire 1 [ b0~combout $end
$var wire 1 \ u5|sum~0_combout $end
$var wire 1 ] r0|q0~regout $end
$upscope $end
$upscope $end
$enddefinitions $end
#0
$dumpvars
0!
0"
0#
0$
0%
0&
0'
0(
0)
0*
0+
0,
0-
1.
0/
00
01
02
03
04
05
x6
07
18
x9
1:
1;
1<
0=
0>
0?
0@
0A
0B
0C
0D
0E
0F
1G
0H
0I
0J
0K
0L
0M
0N
0O
0P
0Q
0R
0S
0T
0U
0V
0W
0X
0Y
0Z
0[
0\
0]
$end
#20000
1-
1/
1B
1J
1C
06
1\
1X
1T
1P
1L
1=
0L
1>
0P
1?
1V
0T
0X
1@
0\
#40000
1#
1%
1*
1,
0-
1R
1I
1N
1E
0B
0C
16
1T
1L
1P
0?
1F
0=
0T
0L
#60000
1-
1B
1C
06
1Q
1H
13
15
#80000
0-
0B
0C
16
#100000
1-
1B
1C
06
#120000
0-
0B
0C
16
#140000
1-
1B
1C
06
#150000
0#
0%
0*
0,
0R
0I
0N
0E
16
0V
1T
1L
0>
0P
1?
0F
1=
1X
0@
1P
0?
1V
0T
0L
1>
1\
0V
1T
0X
1@
0P
1?
1X
0@
0\
1V
0T
1\
0X
1@
0\
#160000
0-
0B
0C
06
#180000
1&
1%
1*
1,
1-
1D
1I
1N
1E
1B
1C
16
1L
1P
0?
0V
1T
1X
0@
1\
0Q
0H
03
05
#200000
0-
0B
0C
06
#220000
1-
1B
1C
16
1]
1Y
1U
1Q
1M
10
11
12
13
14
#240000
1(
1)
1+
0&
0,
0-
1W
1S
1K
0D
0E
0B
0C
06
0X
0T
0L
#260000
1-
1B
1C
16
0Y
0U
0M
01
02
04
#280000
0-
0B
0C
06
#300000
1-
1B
1C
16
#320000
0-
0B
0C
06
#330000
1#
0%
0*
0(
0+
1R
0I
0N
0W
0K
16
1T
0P
1?
1X
1V
0T
0X
1@
0\
#340000
1-
1B
1C
06
0]
0Q
00
03
#360000
0-
0B
0C
16
#380000
1-
1B
1C
06
#400000
0)
0#
0-
0S
0R
0B
0C
16
#420000
1-
1B
1C
06
#440000
0-
0B
0C
16
#460000
1-
1B
1C
06
#480000
0/
0-
0J
0B
0C
16
1\
1X
0V
1T
1P
1L
0@
0?
0>
0=
0X
0\
0T
0P
0L
#500000
1-
1B
1C
06
#520000
0-
0B
0C
16
#540000
1-
1B
1C
06
#550000
1,
1%
1*
1#
1E
1I
1N
1R
16
1F
1L
1P
1T
#560000
0-
0B
0C
06
#580000
1-
1B
1C
16
1U
1Q
1M
1H
12
13
14
15
#600000
0-
0B
0C
06
#620000
1-
1B
1C
16
#640000
0-
0B
0C
06
#660000
1-
1B
1C
16
#680000
1$
1&
1+
0#
0-
1O
1D
1K
0R
0B
0C
06
0P
1?
0F
1=
0L
1>
0T
1T
1L
1P
#700000
1-
1B
1C
16
0H
05
#720000
0-
0B
0C
06
#740000
1-
1B
1C
16
#760000
0-
0B
0C
06
#780000
0%
0*
0$
0+
1-
0I
0N
0O
0K
1B
1C
16
0>
0?
0P
0T
#800000
0-
0B
0C
06
#820000
1-
1B
1C
16
0U
0Q
02
03
#840000
0-
0B
0C
06
#860000
1-
1B
1C
16
#880000
0,
0&
0-
0E
0D
0B
0C
06
0=
0L
#900000
1-
1B
1C
16
0M
04
#920000
0-
0B
0C
06
#940000
1-
1B
1C
16
#960000
0-
0B
0C
06
#980000
1-
1B
1C
16
