calc2/simulation/qsim/calc.msim.vcd
$comment
	File created using the following command:
		vcd file calc.msim.vcd -direction
$end
$date
	Tue Jul 16 22:42:49 2024
$end
$version
	ModelSim Version 10.1d
$end
$timescale
	1ps
$end
$scope module calc_vlg_vec_tst $end
$var reg 1 ! a0 $end
$var reg 1 " a1 $end
$var reg 1 # a2 $end
$var reg 1 $ a3 $end
$var reg 1 % a4 $end
$var reg 1 & a5 $end
$var reg 1 ' b0 $end
$var reg 1 ( b1 $end
$var reg 1 ) b2 $end
$var reg 1 * b3 $end
$var reg 1 + b4 $end
$var reg 1 , b5 $end
$var reg 1 - clk $end
$var reg 1 . load $end
$var reg 1 / sub $end
$var wire 1 0 s0 $end
$var wire 1 1 s1 $end
$var wire 1 2 s2 $end
$var wire 1 3 s3 $end
$var wire 1 4 s4 $end
$var wire 1 5 s5 $end
$var wire 1 6 sampler $end
$scope module i1 $end
$var wire 1 7 gnd $end
$var wire 1 8 vcc $end
$var wire 1 9 unknown $end
$var tri1 1 : devclrn $end
$var tri1 1 ; devpor $end
$var tri1 1 < devoe $end
$var wire 1 = m4|d~0_combout $end
$var wire 1 > u2|cout~0_combout $end
$var wire 1 ? u4|cout~0_combout $end
$var wire 1 @ a5~combout $end
$var wire 1 A clk~combout $end
$var wire 1 B clk~clkctrl_outclk $end
$var wire 1 C b0~combout $end
$var wire 1 D sub~combout $end
$var wire 1 E b5~combout $end
$var wire 1 F u0|sum~combout $end
$var wire 1 G load~combout $end
$var wire 1 H r0|q5~regout $end
$var wire 1 I u0|cout~0_combout $end
$var wire 1 J a4~combout $end
$var wire 1 K b4~combout $end
$var wire 1 L m4|d~1_combout $end
$var wire 1 M u1|sum~combout $end
$var wire 1 N r0|q4~regout $end
$var wire 1 O b3~combout $end
$var wire 1 P a3~combout $end
$var wire 1 Q u1|cout~0_combout $end
$var wire 1 R u2|sum~0_combout $end
$var wire 1 S r0|q3~regout $end
$var wire 1 T b2~combout $end
$var wire 1 U a2~combout $end
$var wire 1 V u3|sum~0_combout $end
$var wire 1 W r0|q2~regout $end
$var wire 1 X b1~combout $end
$var wire 1 Y a1~combout $end
$var wire 1 Z u3|cout~0_combout $end
$var wire 1 [ u4|sum~0_combout $end
$var wire 1 \ r0|q1~regout $end
$var wire 1 ] a0~combout $end
$var wire 1 ^ u5|sum~0_combout $end
$var wire 1 _ r0|q0~regout $end
$upscope $end
$upscope $end
$enddefinitions $end
#0
$dumpvars
0!
0"
0#
0$
0%
0&
0'
0(
0)
0*
0+
0,
0-
1.
0/
00
01
02
03
04
05
x6
07
18
x9
1:
1;
1<
0=
0>
0?
0@
0A
0B
0C
0D
0E
0F
1G
0H
0I
0J
0K
0L
0M
0N
0O
0P
0Q
0R
0S
0T
0U
0V
0W
0X
0Y
0Z
0[
0\
0]
0^
0_
$end
#20000
1-
1A
1B
06
#40000
0-
0A
0B
16
#60000
1#
1%
1*
1,
1-
1U
1J
1O
1E
1A
1B
06
1V
1M
1R
#80000
0-
0A
0B
16
#100000
1-
1A
1B
06
1W
1S
1N
12
13
14
#120000
0-
0A
0B
16
#140000
1-
1A
1B
06
#160000
0#
0%
0*
0,
0-
0U
0J
0O
0E
0A
0B
16
0V
0M
0R
#180000
1-
1A
1B
06
0W
0S
0N
02
03
04
#200000
0-
0A
0B
16
#220000
1-
1A
1B
06
#240000
0-
0A
0B
16
#260000
1-
1A
1B
06
#280000
0-
0A
0B
16
#300000
1-
1A
1B
06
#320000
0-
0A
0B
16
#340000
1-
1A
1B
06
#360000
0-
0A
0B
16
#380000
1-
1A
1B
06
#400000
0-
0A
0B
16
#420000
1-
1A
1B
06
#440000
0-
0A
0B
16
#460000
1-
1A
1B
06
#480000
0-
0A
0B
16
#500000
1-
1A
1B
06
#520000
0-
0A
0B
16
#540000
1-
1A
1B
06
#560000
0-
0A
0B
16
#580000
1-
1A
1B
06
#600000
0-
0A
0B
16
#620000
1-
1A
1B
06
#640000
0-
0A
0B
16
#660000
1-
1A
1B
06
#680000
0-
0A
0B
16
#700000
1-
1A
1B
06
#720000
0-
0A
0B
16
#740000
1-
1A
1B
06
#760000
0-
0A
0B
16
#780000
1-
1A
1B
06
#800000
0-
0A
0B
16
#820000
1-
1A
1B
06
#840000
0-
0A
0B
16
#860000
1-
1A
1B
06
#880000
0-
0A
0B
16
#900000
1-
1A
1B
06
#920000
0-
0A
0B
16
#940000
1-
1A
1B
06
#960000
0-
0A
0B
16
#980000
1-
1A
1B
06
