decrementador-4bit/simulation/qsim/decrementador.msim.vcd
$comment
	File created using the following command:
		vcd file decrementador.msim.vcd -direction
$end
$date
	Fri Apr 19 09:24:00 2024
$end
$version
	ModelSim Version 10.1d
$end
$timescale
	1ps
$end
$scope module decrementador_vlg_vec_tst $end
$var reg 1 ! clk $end
$var reg 1 " cnt $end
$var reg 4 # data [3:0] $end
$var reg 1 $ ld $end
$var reg 1 % reset $end
$var wire 1 & q [3] $end
$var wire 1 ' q [2] $end
$var wire 1 ( q [1] $end
$var wire 1 ) q [0] $end
$var wire 1 * tc $end
$var wire 1 + sampler $end
$scope module i1 $end
$var wire 1 , gnd $end
$var wire 1 - vcc $end
$var wire 1 . unknown $end
$var tri1 1 / devclrn $end
$var tri1 1 0 devpor $end
$var tri1 1 1 devoe $end
$var wire 1 2 tc~1_combout $end
$var wire 1 3 tc~output_o $end
$var wire 1 4 q[0]~output_o $end
$var wire 1 5 q[1]~output_o $end
$var wire 1 6 q[2]~output_o $end
$var wire 1 7 q[3]~output_o $end
$var wire 1 8 clk~input_o $end
$var wire 1 9 clk~inputclkctrl_outclk $end
$var wire 1 : data[0]~input_o $end
$var wire 1 ; ld~input_o $end
$var wire 1 < qv~0_combout $end
$var wire 1 = reset~input_o $end
$var wire 1 > reset~inputclkctrl_outclk $end
$var wire 1 ? cnt~input_o $end
$var wire 1 @ qv[0]~1_combout $end
$var wire 1 A data[3]~input_o $end
$var wire 1 B data[2]~input_o $end
$var wire 1 C data[1]~input_o $end
$var wire 1 D qv~2_combout $end
$var wire 1 E qv~3_combout $end
$var wire 1 F qv~4_combout $end
$var wire 1 G qv~5_combout $end
$var wire 1 H qv~6_combout $end
$var wire 1 I tc~0_combout $end
$var wire 1 J tc~2_combout $end
$var wire 1 K tc~reg0_q $end
$var wire 1 L qv [3] $end
$var wire 1 M qv [2] $end
$var wire 1 N qv [1] $end
$var wire 1 O qv [0] $end
$upscope $end
$upscope $end
$enddefinitions $end
#0
$dumpvars
0!
0"
b1010 #
0$
0%
1)
1(
1'
1&
0*
x+
0,
1-
x.
1/
10
11
12
03
14
15
16
17
08
09
0:
0;
1<
0=
0>
0?
1@
1A
0B
1C
0D
1E
0F
0G
0H
0I
0J
0K
0O
0N
0M
0L
$end
#12500
1!
18
19
0+
1O
1D
0<
04
0)
#25000
1"
0!
1?
08
09
1+
0@
02
#37500
1!
18
19
0+
#50000
0"
0!
0?
08
09
1+
1@
12
#62500
1!
18
19
0+
1N
0O
1<
05
14
0(
1)
#75000
1"
0!
1?
08
09
1+
0@
02
#87500
1!
18
19
0+
#100000
0"
0!
0?
08
09
1+
1@
12
#110000
1$
1;
0+
1H
1G
0E
0D
02
0H
1F
#112500
1!
18
19
1+
1M
0N
1O
06
15
04
0'
1(
0)
#125000
1"
0!
1?
08
09
0+
#137500
1!
18
19
1+
#150000
0$
0"
0!
0;
0?
08
09
0+
1H
0G
1D
0<
12
0H
#162500
1!
18
19
1+
1N
0O
1G
1<
05
14
0(
1)
#175000
1"
0!
1?
08
09
0+
0@
02
#187500
1!
18
19
1+
#200000
0"
0!
0?
08
09
0+
1@
12
#212500
1!
18
19
1+
1O
1H
1E
0D
0<
04
0)
0F
#225000
1"
0!
1?
08
09
0+
0@
02
#237500
1!
18
19
1+
#250000
0"
0!
0?
08
09
0+
1@
12
#262500
1!
18
19
1+
1L
0M
0N
0O
0G
1<
07
16
15
14
0&
1'
1(
1)
#275000
1"
0!
1?
08
09
0+
0@
02
#287500
1!
18
19
1+
#300000
0"
0!
0?
08
09
0+
1@
12
#312500
1!
18
19
1+
1O
1D
0<
04
0)
#325000
1"
0!
1?
08
09
0+
0@
02
#337500
1!
18
19
1+
#350000
0"
0!
0?
08
09
0+
1@
12
#362500
1!
18
19
1+
1N
0O
1<
05
14
0(
1)
#375000
1"
0!
1?
08
09
0+
0@
02
#387500
1!
18
19
1+
#400000
0"
0!
0?
08
09
0+
1@
12
#412500
1!
18
19
1+
1O
0E
0D
0<
04
0)
1F
#425000
1"
0!
1?
08
09
0+
0@
02
#437500
1!
18
19
1+
#450000
0"
0!
0?
08
09
0+
1@
12
#462500
1!
18
19
1+
1M
0N
0O
1<
06
15
14
0'
1(
1)
#475000
1"
0!
1?
08
09
0+
0@
02
#487500
1!
18
19
1+
#500000
0"
0!
0?
08
09
0+
1@
12
#512500
1!
18
19
1+
1O
1I
1D
0<
04
0)
#525000
1"
0!
1?
08
09
0+
0@
02
#537500
1!
18
19
1+
#550000
0"
0!
0?
08
09
0+
1@
12
#562500
1!
18
19
1+
1N
0O
1G
1J
1<
05
14
0(
1)
#575000
1"
0!
1?
08
09
0+
0@
02
0J
#587500
1!
18
19
1+
#600000
0"
0!
0?
08
09
0+
1@
12
1J
#612500
1!
18
19
1+
1O
1K
0J
0I
0H
1E
0D
0<
04
13
0)
1*
0F
#625000
1"
0!
1?
08
09
0+
0@
02
1J
#637500
1!
18
19
1+
#650000
0"
0!
0?
08
09
0+
1@
12
0J
#662500
1!
18
19
1+
0L
0M
0N
0O
0K
0G
1<
17
16
15
14
03
1&
1'
1(
1)
0*
#675000
1"
0!
1?
08
09
0+
0@
02
#687500
1!
18
19
1+
#700000
0"
0!
0?
08
09
0+
1@
12
#712500
1!
18
19
1+
1O
1D
0<
04
0)
#725000
1"
0!
1?
08
09
0+
0@
02
#730000
1%
1=
1>
1+
0O
0D
1<
14
1)
#737500
1!
18
19
0+
#750000
0"
0!
0?
08
09
1+
1@
#760000
0%
0=
0>
0+
12
#762500
1!
18
19
1+
1O
1D
0<
04
0)
#775000
1"
0!
1?
08
09
0+
0@
02
#787500
1!
18
19
1+
#800000
0"
0!
0?
08
09
0+
1@
12
#812500
1!
18
19
1+
1N
0O
1<
05
14
0(
1)
#825000
1"
0!
1?
08
09
0+
0@
02
#837500
1!
18
19
1+
#850000
0"
0!
0?
08
09
0+
1@
12
#862500
1!
18
19
1+
1O
0E
0D
0<
04
0)
1F
#875000
1"
0!
1?
08
09
0+
0@
02
#887500
1!
18
19
1+
#900000
0"
0!
0?
08
09
0+
1@
12
#912500
1!
18
19
1+
1M
0N
0O
1<
06
15
14
0'
1(
1)
#925000
1"
0!
1?
08
09
0+
0@
02
#937500
1!
18
19
1+
#950000
0"
0!
0?
08
09
0+
1@
12
#962500
1!
18
19
1+
1O
1D
0<
04
0)
#975000
1"
0!
1?
08
09
0+
0@
02
#987500
1!
18
19
1+
