lab3/mux4x1/simulation/qsim/mux4x1.msim.vcd
$comment
	File created using the following command:
		vcd file mux4x1.msim.vcd -direction
$end
$date
	Fri Mar 22 18:56:08 2024
$end
$version
	ModelSim Version 10.1d
$end
$timescale
	1ps
$end
$scope module mux4x1_vlg_vec_tst $end
$var reg 1 ! I0 $end
$var reg 1 " I1 $end
$var reg 1 # I2 $end
$var reg 1 $ I3 $end
$var reg 1 % S0 $end
$var reg 1 & S1 $end
$var wire 1 ' d $end
$var wire 1 ( sampler $end
$scope module i1 $end
$var wire 1 ) gnd $end
$var wire 1 * vcc $end
$var wire 1 + unknown $end
$var tri1 1 , devclrn $end
$var tri1 1 - devpor $end
$var tri1 1 . devoe $end
$var wire 1 / d~output_o $end
$var wire 1 0 S0~input_o $end
$var wire 1 1 I0~input_o $end
$var wire 1 2 I1~input_o $end
$var wire 1 3 S1~input_o $end
$var wire 1 4 Mux0~0_combout $end
$var wire 1 5 I2~input_o $end
$var wire 1 6 I3~input_o $end
$var wire 1 7 Mux0~1_combout $end
$upscope $end
$upscope $end
$enddefinitions $end
#0
$dumpvars
0!
0"
0#
0$
1%
0&
0'
x(
0)
1*
x+
1,
1-
1.
0/
10
01
02
03
04
05
06
07
$end
#50000
1!
0%
1&
11
00
13
0(
#100000
1"
0!
12
01
1(
14
17
1/
1'
#150000
1!
11
0(
#200000
1#
1%
0"
0!
15
10
02
01
1(
07
0/
0'
#250000
0&
0%
1!
03
00
11
0(
17
1/
1'
#300000
1"
1&
0!
12
13
01
1(
#350000
1%
1!
10
11
0(
07
0/
0'
#400000
1$
0#
0"
0&
0!
16
05
02
03
01
1(
04
17
1/
1'
07
0/
0'
#450000
0%
1&
1!
00
13
11
0(
#500000
1"
0&
0!
12
03
01
1(
#550000
1%
1&
1!
10
13
11
0(
14
17
1/
1'
#600000
1#
0"
0&
0!
15
02
03
01
1(
04
#650000
1&
1!
13
11
0(
14
#700000
0%
1"
0&
0!
00
12
03
01
1(
04
07
0/
0'
#750000
1%
1&
1!
10
13
11
0(
14
17
1/
1'
#800000
0$
0#
0"
0&
0!
06
05
02
03
01
1(
04
07
0/
0'
#850000
1!
11
0(
#900000
0%
1"
0!
00
12
01
1(
#950000
1%
1!
10
11
0(
