display7seg-portas-logicas/simulation/qsim/d7seg.msim.vcd
$comment
	File created using the following command:
		vcd file d7seg.msim.vcd -direction
$end
$date
	Thu Apr 04 16:50:22 2024
$end
$version
	ModelSim Version 10.1d
$end
$timescale
	1ps
$end
$scope module d7seg_vlg_vec_tst $end
$var reg 1 ! a1 $end
$var reg 1 " a2 $end
$var reg 1 # a3 $end
$var reg 1 $ a4 $end
$var wire 1 % s0 $end
$var wire 1 & s1 $end
$var wire 1 ' s2 $end
$var wire 1 ( s3 $end
$var wire 1 ) s4 $end
$var wire 1 * s5 $end
$var wire 1 + s6 $end
$var wire 1 , sampler $end
$scope module i1 $end
$var wire 1 - gnd $end
$var wire 1 . vcc $end
$var wire 1 / unknown $end
$var tri1 1 0 devclrn $end
$var tri1 1 1 devpor $end
$var tri1 1 2 devoe $end
$var wire 1 3 a4~combout $end
$var wire 1 4 a1~combout $end
$var wire 1 5 a2~combout $end
$var wire 1 6 a3~combout $end
$var wire 1 7 s0~0_combout $end
$var wire 1 8 s1~0_combout $end
$var wire 1 9 s2~0_combout $end
$var wire 1 : s3~0_combout $end
$var wire 1 ; s4~0_combout $end
$var wire 1 < s5~0_combout $end
$var wire 1 = s6~0_combout $end
$upscope $end
$upscope $end
$enddefinitions $end
#0
$dumpvars
0!
0"
0#
0$
0%
0&
0'
0(
0)
0*
1+
x,
0-
1.
x/
10
11
12
03
04
05
06
07
08
09
0:
0;
0<
1=
$end
#50000
1!
14
0,
1<
1;
1:
17
1*
1)
1(
1%
#100000
1"
0!
15
04
1,
0=
0;
0:
19
07
0+
0)
0(
1'
0%
#150000
1!
14
0,
1;
09
1)
0'
#200000
1#
0"
0!
16
05
04
1,
0<
1:
17
0*
1(
1%
#250000
1!
14
0,
0:
18
07
0(
1&
0%
#300000
1"
0!
15
04
1,
0;
0)
#350000
1!
14
0,
1=
1<
1;
1:
08
1+
1*
1)
1(
0&
#400000
1$
0#
0"
0!
13
06
05
04
1,
0=
0<
0;
0:
0+
0*
0)
0(
#450000
1!
14
0,
1;
1:
1)
1(
#500000
1"
0!
15
04
1,
0;
0:
0)
0(
#550000
1!
14
0,
#600000
1#
0"
0!
16
05
04
1,
#650000
1!
14
0,
#700000
1"
0!
15
04
1,
#750000
1!
14
0,
#800000
0$
0#
0"
0!
03
06
05
04
1,
1=
1+
#850000
1!
14
0,
1<
1;
1:
17
1*
1)
1(
1%
#900000
1"
0!
15
04
1,
0=
0;
0:
19
07
0+
0)
0(
1'
0%
#950000
1!
14
0,
1;
09
1)
0'
