display7seg-comportamental/simulation/qsim/d7segcomp.msim.vcd
$comment
	File created using the following command:
		vcd file d7segcomp.msim.vcd -direction
$end
$date
	Thu Apr 04 17:40:54 2024
$end
$version
	ModelSim Version 10.1d
$end
$timescale
	1ps
$end
$scope module d7segcomp_vlg_vec_tst $end
$var reg 1 ! E0 $end
$var reg 1 " E1 $end
$var reg 1 # E2 $end
$var reg 1 $ E3 $end
$var wire 1 % Y0 $end
$var wire 1 & Y1 $end
$var wire 1 ' Y2 $end
$var wire 1 ( Y3 $end
$var wire 1 ) Y4 $end
$var wire 1 * Y5 $end
$var wire 1 + Y6 $end
$var wire 1 , sampler $end
$scope module i1 $end
$var wire 1 - gnd $end
$var wire 1 . vcc $end
$var wire 1 / unknown $end
$var tri1 1 0 devclrn $end
$var tri1 1 1 devpor $end
$var tri1 1 2 devoe $end
$var wire 1 3 E3~combout $end
$var wire 1 4 E0~combout $end
$var wire 1 5 E2~combout $end
$var wire 1 6 E1~combout $end
$var wire 1 7 Mux6~0_combout $end
$var wire 1 8 Mux5~0_combout $end
$var wire 1 9 Mux4~0_combout $end
$var wire 1 : Mux3~0_combout $end
$var wire 1 ; Mux2~0_combout $end
$var wire 1 < Mux1~0_combout $end
$var wire 1 = Mux0~0_combout $end
$upscope $end
$upscope $end
$enddefinitions $end
#0
$dumpvars
0!
0"
0#
0$
0%
0&
0'
0(
0)
0*
1+
x,
0-
1.
x/
10
11
12
03
04
05
06
07
08
09
0:
0;
0<
0=
$end
#50000
1!
14
0,
1<
1;
1:
17
1*
1)
1(
1%
#100000
1"
0!
16
04
1,
1=
0;
0:
19
07
0)
0(
1'
0%
0+
#150000
1!
14
0,
1;
09
1)
0'
#200000
1#
0"
0!
15
06
04
1,
0<
1:
17
0*
1(
1%
#250000
1!
14
0,
0:
18
07
0(
1&
0%
#300000
1"
0!
16
04
1,
0;
0)
#350000
1!
14
0,
0=
1<
1;
1:
08
1*
1)
1(
0&
1+
#400000
1$
0#
0"
0!
13
05
06
04
1,
1=
0<
0;
0:
0*
0)
0(
0+
#450000
1!
14
0,
1;
1:
1)
1(
#500000
1"
0!
16
04
1,
0=
1<
19
18
17
1*
1'
1&
1%
1+
#550000
1!
14
0,
#600000
1#
0"
0!
15
06
04
1,
#650000
1!
14
0,
#700000
1"
0!
16
04
1,
#750000
1!
14
0,
#800000
0$
0#
0"
0!
03
05
06
04
1,
0<
0;
0:
09
08
07
0*
0)
0(
0'
0&
0%
#850000
1!
14
0,
1<
1;
1:
17
1*
1)
1(
1%
#900000
1"
0!
16
04
1,
1=
0;
0:
19
07
0)
0(
1'
0%
0+
#950000
1!
14
0,
1;
09
1)
0'
