circuitoROM-RAM/simulation/qsim/circuito.msim.vcd
$comment
	File created using the following command:
		vcd file circuito.msim.vcd -direction
$end
$date
	Fri Aug 16 17:06:12 2024
$end
$version
	ModelSim Version 10.1d
$end
$timescale
	1ps
$end
$scope module circuito_vlg_vec_tst $end
$var reg 1 ! clock $end
$var reg 1 " mem_enable $end
$var reg 1 # rom_enable $end
$var reg 1 $ rw_enable $end
$var wire 1 % add_ram [3] $end
$var wire 1 & add_ram [2] $end
$var wire 1 ' add_ram [1] $end
$var wire 1 ( add_ram [0] $end
$var wire 1 ) add_rom [3] $end
$var wire 1 * add_rom [2] $end
$var wire 1 + add_rom [1] $end
$var wire 1 , add_rom [0] $end
$var wire 1 - ram_data_output [7] $end
$var wire 1 . ram_data_output [6] $end
$var wire 1 / ram_data_output [5] $end
$var wire 1 0 ram_data_output [4] $end
$var wire 1 1 ram_data_output [3] $end
$var wire 1 2 ram_data_output [2] $end
$var wire 1 3 ram_data_output [1] $end
$var wire 1 4 ram_data_output [0] $end
$var wire 1 5 rom_data_output [7] $end
$var wire 1 6 rom_data_output [6] $end
$var wire 1 7 rom_data_output [5] $end
$var wire 1 8 rom_data_output [4] $end
$var wire 1 9 rom_data_output [3] $end
$var wire 1 : rom_data_output [2] $end
$var wire 1 ; rom_data_output [1] $end
$var wire 1 < rom_data_output [0] $end
$var wire 1 = sampler $end
$scope module i1 $end
$var wire 1 > gnd $end
$var wire 1 ? vcc $end
$var wire 1 @ unknown $end
$var tri1 1 A devclrn $end
$var tri1 1 B devpor $end
$var tri1 1 C devoe $end
$var wire 1 D counter[6]~52_combout $end
$var wire 1 E counter[8]~56_combout $end
$var wire 1 F counter[21]~82_combout $end
$var wire 1 G counter[24]~88_combout $end
$var wire 1 H counter[26]~92_combout $end
$var wire 1 I counter[30]~101 $end
$var wire 1 J counter[31]~102_combout $end
$var wire 1 K ram_inst|ram~58_regout $end
$var wire 1 L ram_inst|ram~43_regout $end
$var wire 1 M ram_inst|ram~48_regout $end
$var wire 1 N ram_inst|ram~18_regout $end
$var wire 1 O ram_inst|ram~28_regout $end
$var wire 1 P ram_inst|ram~83_regout $end
$var wire 1 Q ram_inst|ram~88_regout $end
$var wire 1 R ram_inst|ram~59_regout $end
$var wire 1 S ram_inst|ram~69_regout $end
$var wire 1 T ram_inst|ram~49_regout $end
$var wire 1 U ram_inst|ram~29_regout $end
$var wire 1 V ram_inst|ram~110_combout $end
$var wire 1 W ram_inst|ram~89_regout $end
$var wire 1 X ram_inst|ram~111_combout $end
$var wire 1 Y ram_inst|ram~45_regout $end
$var wire 1 Z ram_inst|ram~40_regout $end
$var wire 1 [ ram_inst|ram~35_regout $end
$var wire 1 \ ram_inst|ram~113_combout $end
$var wire 1 ] ram_inst|ram~50_regout $end
$var wire 1 ^ ram_inst|ram~114_combout $end
$var wire 1 _ ram_inst|ram~60_regout $end
$var wire 1 ` ram_inst|ram~65_regout $end
$var wire 1 a ram_inst|ram~61_regout $end
$var wire 1 b ram_inst|ram~21_regout $end
$var wire 1 c ram_inst|ram~123_combout $end
$var wire 1 d ram_inst|ram~66_regout $end
$var wire 1 e ram_inst|ram~51_regout $end
$var wire 1 f ram_inst|ram~71_regout $end
$var wire 1 g ram_inst|ram~67_regout $end
$var wire 1 h ram_inst|ram~62_regout $end
$var wire 1 i ram_inst|ram~47_regout $end
$var wire 1 j ram_inst|ram~52_regout $end
$var wire 1 k ram_inst|ram~22_regout $end
$var wire 1 l ram_inst|ram~17_regout $end
$var wire 1 m ram_inst|ram~137_combout $end
$var wire 1 n ram_inst|ram~87_regout $end
$var wire 1 o ram_inst|ram~92_regout $end
$var wire 1 p ram_inst|ram~145_combout $end
$var wire 1 q ram_inst|ram~146_combout $end
$var wire 1 r ram_inst|ram~157_combout $end
$var wire 1 s ram_inst|ram~158_combout $end
$var wire 1 t LessThan0~0_combout $end
$var wire 1 u counter[0]~37_combout $end
$var wire 1 v ram_inst|ram~58feeder_combout $end
$var wire 1 w ram_inst|ram~18feeder_combout $end
$var wire 1 x ram_inst|ram~28feeder_combout $end
$var wire 1 y ram_inst|ram~88feeder_combout $end
$var wire 1 z ram_inst|ram~89feeder_combout $end
$var wire 1 { ram_inst|ram~59feeder_combout $end
$var wire 1 | ram_inst|ram~65feeder_combout $end
$var wire 1 } ram_inst|ram~60feeder_combout $end
$var wire 1 ~ ram_inst|ram~66feeder_combout $end
$var wire 1 !! ram_inst|ram~61feeder_combout $end
$var wire 1 "! ram_inst|ram~87feeder_combout $end
$var wire 1 #! ram_inst|ram~22feeder_combout $end
$var wire 1 $! ram_inst|ram~62feeder_combout $end
$var wire 1 %! clock~combout $end
$var wire 1 &! clock~clkctrl_outclk $end
$var wire 1 '! mem_enable~combout $end
$var wire 1 (! rom_enable~combout $end
$var wire 1 )! rom_to_ram~0_combout $end
$var wire 1 *! rom_to_ram~regout $end
$var wire 1 +! address_ram[0]~0_combout $end
$var wire 1 ,! counter[1]~43 $end
$var wire 1 -! counter[2]~44_combout $end
$var wire 1 .! counter[2]~45 $end
$var wire 1 /! counter[3]~47 $end
$var wire 1 0! counter[4]~48_combout $end
$var wire 1 1! counter[4]~49 $end
$var wire 1 2! counter[5]~51 $end
$var wire 1 3! counter[6]~53 $end
$var wire 1 4! counter[7]~54_combout $end
$var wire 1 5! counter[5]~50_combout $end
$var wire 1 6! counter[0]~31_combout $end
$var wire 1 7! counter[7]~55 $end
$var wire 1 8! counter[8]~57 $end
$var wire 1 9! counter[9]~58_combout $end
$var wire 1 :! counter[9]~59 $end
$var wire 1 ;! counter[10]~61 $end
$var wire 1 <! counter[11]~62_combout $end
$var wire 1 =! counter[10]~60_combout $end
$var wire 1 >! counter[0]~32_combout $end
$var wire 1 ?! counter[11]~63 $end
$var wire 1 @! counter[12]~65 $end
$var wire 1 A! counter[13]~66_combout $end
$var wire 1 B! counter[13]~67 $end
$var wire 1 C! counter[14]~68_combout $end
$var wire 1 D! counter[14]~69 $end
$var wire 1 E! counter[15]~70_combout $end
$var wire 1 F! counter[12]~64_combout $end
$var wire 1 G! counter[0]~33_combout $end
$var wire 1 H! counter[0]~34_combout $end
$var wire 1 I! counter[15]~71 $end
$var wire 1 J! counter[16]~72_combout $end
$var wire 1 K! counter[16]~73 $end
$var wire 1 L! counter[17]~74_combout $end
$var wire 1 M! counter[17]~75 $end
$var wire 1 N! counter[18]~76_combout $end
$var wire 1 O! counter[18]~77 $end
$var wire 1 P! counter[19]~79 $end
$var wire 1 Q! counter[20]~80_combout $end
$var wire 1 R! counter[20]~81 $end
$var wire 1 S! counter[21]~83 $end
$var wire 1 T! counter[22]~85 $end
$var wire 1 U! counter[23]~86_combout $end
$var wire 1 V! counter[23]~87 $end
$var wire 1 W! counter[24]~89 $end
$var wire 1 X! counter[25]~90_combout $end
$var wire 1 Y! counter[25]~91 $end
$var wire 1 Z! counter[26]~93 $end
$var wire 1 [! counter[27]~94_combout $end
$var wire 1 \! counter[27]~95 $end
$var wire 1 ]! counter[28]~97 $end
$var wire 1 ^! counter[29]~98_combout $end
$var wire 1 _! counter[29]~99 $end
$var wire 1 `! counter[30]~100_combout $end
$var wire 1 a! counter[28]~96_combout $end
$var wire 1 b! counter[0]~38_combout $end
$var wire 1 c! counter[19]~78_combout $end
$var wire 1 d! counter[0]~35_combout $end
$var wire 1 e! counter[22]~84_combout $end
$var wire 1 f! counter[0]~36_combout $end
$var wire 1 g! counter[0]~39_combout $end
$var wire 1 h! counter[0]~40_combout $end
$var wire 1 i! counter[0]~41_combout $end
$var wire 1 j! address_rom[0]~1_combout $end
$var wire 1 k! address_rom[0]~0_combout $end
$var wire 1 l! rom_inst|data_output[0]~0_combout $end
$var wire 1 m! comb~0_combout $end
$var wire 1 n! rw_enable~combout $end
$var wire 1 o! counter[3]~46_combout $end
$var wire 1 p! address_ram[3]~feeder_combout $end
$var wire 1 q! counter[1]~42_combout $end
$var wire 1 r! address_ram[1]~feeder_combout $end
$var wire 1 s! ram_inst|ram~143_combout $end
$var wire 1 t! ram_inst|ram~144_combout $end
$var wire 1 u! ram_inst|ram~63_regout $end
$var wire 1 v! address_ram[0]~feeder_combout $end
$var wire 1 w! ram_inst|ram~149_combout $end
$var wire 1 x! ram_inst|ram~150_combout $end
$var wire 1 y! ram_inst|ram~68_regout $end
$var wire 1 z! ram_inst|temp_address[0]~0_combout $end
$var wire 1 {! ram_inst|ram~147_combout $end
$var wire 1 |! ram_inst|ram~148_combout $end
$var wire 1 }! ram_inst|ram~53_regout $end
$var wire 1 ~! ram_inst|temp_address[0]~feeder_combout $end
$var wire 1 !" ram_inst|ram~93_combout $end
$var wire 1 "" ram_inst|ram~94_combout $end
$var wire 1 #" ram_inst|ram~167_combout $end
$var wire 1 $" ram_inst|ram~168_combout $end
$var wire 1 %" ram_inst|ram~78_regout $end
$var wire 1 &" ram_inst|ram~171_combout $end
$var wire 1 '" ram_inst|ram~172_combout $end
$var wire 1 (" ram_inst|ram~73_regout $end
$var wire 1 )" ram_inst|ram~100_combout $end
$var wire 1 *" ram_inst|ram~101_combout $end
$var wire 1 +" ram_inst|ram~159_combout $end
$var wire 1 ," ram_inst|ram~160_combout $end
$var wire 1 -" ram_inst|ram~23_regout $end
$var wire 1 ." ram_inst|ram~163_combout $end
$var wire 1 /" ram_inst|ram~164_combout $end
$var wire 1 0" ram_inst|ram~13_regout $end
$var wire 1 1" ram_inst|ram~97_combout $end
$var wire 1 2" ram_inst|ram~98_combout $end
$var wire 1 3" ram_inst|ram~151_combout $end
$var wire 1 4" ram_inst|ram~152_combout $end
$var wire 1 5" ram_inst|ram~38_regout $end
$var wire 1 6" ram_inst|ram~155_combout $end
$var wire 1 7" ram_inst|ram~156_combout $end
$var wire 1 8" ram_inst|ram~33_regout $end
$var wire 1 9" ram_inst|ram~95_combout $end
$var wire 1 :" ram_inst|ram~96_combout $end
$var wire 1 ;" ram_inst|ram~99_combout $end
$var wire 1 <" ram_inst|ram~102_combout $end
$var wire 1 =" address_rom[1]~2_combout $end
$var wire 1 >" rom_inst|Mux3~0_combout $end
$var wire 1 ?" ram_inst|ram~153_combout $end
$var wire 1 @" ram_inst|ram~154_combout $end
$var wire 1 A" ram_inst|ram~44_regout $end
$var wire 1 B" ram_inst|ram~169_combout $end
$var wire 1 C" ram_inst|ram~170_combout $end
$var wire 1 D" ram_inst|ram~84_regout $end
$var wire 1 E" ram_inst|ram~24_regout $end
$var wire 1 F" ram_inst|ram~64feeder_combout $end
$var wire 1 G" ram_inst|ram~64_regout $end
$var wire 1 H" ram_inst|ram~103_combout $end
$var wire 1 I" ram_inst|ram~104_combout $end
$var wire 1 J" ram_inst|ram~79feeder_combout $end
$var wire 1 K" ram_inst|ram~79_regout $end
$var wire 1 L" ram_inst|ram~39feeder_combout $end
$var wire 1 M" ram_inst|ram~39_regout $end
$var wire 1 N" ram_inst|ram~161_combout $end
$var wire 1 O" ram_inst|ram~162_combout $end
$var wire 1 P" ram_inst|ram~19_regout $end
$var wire 1 Q" ram_inst|ram~105_combout $end
$var wire 1 R" ram_inst|ram~106_combout $end
$var wire 1 S" ram_inst|ram~54_regout $end
$var wire 1 T" ram_inst|ram~14_regout $end
$var wire 1 U" ram_inst|ram~107_combout $end
$var wire 1 V" ram_inst|ram~74_regout $end
$var wire 1 W" ram_inst|ram~34feeder_combout $end
$var wire 1 X" ram_inst|ram~34_regout $end
$var wire 1 Y" ram_inst|ram~108_combout $end
$var wire 1 Z" ram_inst|ram~109_combout $end
$var wire 1 [" ram_inst|ram~112_combout $end
$var wire 1 \" address_rom[2]~3_combout $end
$var wire 1 ]" rom_inst|Mux2~0_combout $end
$var wire 1 ^" ram_inst|ram~90feeder_combout $end
$var wire 1 _" ram_inst|ram~173_combout $end
$var wire 1 `" ram_inst|ram~174_combout $end
$var wire 1 a" ram_inst|ram~90_regout $end
$var wire 1 b" ram_inst|ram~85_regout $end
$var wire 1 c" ram_inst|ram~75_regout $end
$var wire 1 d" ram_inst|ram~80feeder_combout $end
$var wire 1 e" ram_inst|ram~80_regout $end
$var wire 1 f" ram_inst|ram~120_combout $end
$var wire 1 g" ram_inst|ram~121_combout $end
$var wire 1 h" ram_inst|ram~70_regout $end
$var wire 1 i" ram_inst|ram~55_regout $end
$var wire 1 j" ram_inst|ram~115_combout $end
$var wire 1 k" ram_inst|ram~116_combout $end
$var wire 1 l" ram_inst|ram~20_regout $end
$var wire 1 m" ram_inst|ram~165_combout $end
$var wire 1 n" ram_inst|ram~166_combout $end
$var wire 1 o" ram_inst|ram~30_regout $end
$var wire 1 p" ram_inst|ram~15_regout $end
$var wire 1 q" ram_inst|ram~25feeder_combout $end
$var wire 1 r" ram_inst|ram~25_regout $end
$var wire 1 s" ram_inst|ram~117_combout $end
$var wire 1 t" ram_inst|ram~118_combout $end
$var wire 1 u" ram_inst|ram~119_combout $end
$var wire 1 v" ram_inst|ram~122_combout $end
$var wire 1 w" address_rom[3]~4_combout $end
$var wire 1 x" rom_inst|Mux1~0_combout $end
$var wire 1 y" ram_inst|ram~81feeder_combout $end
$var wire 1 z" ram_inst|ram~81_regout $end
$var wire 1 {" ram_inst|ram~41feeder_combout $end
$var wire 1 |" ram_inst|ram~41_regout $end
$var wire 1 }" ram_inst|ram~124_combout $end
$var wire 1 ~" ram_inst|ram~56_regout $end
$var wire 1 !# ram_inst|ram~76_regout $end
$var wire 1 "# ram_inst|ram~36feeder_combout $end
$var wire 1 ## ram_inst|ram~36_regout $end
$var wire 1 $# ram_inst|ram~16_regout $end
$var wire 1 %# ram_inst|ram~127_combout $end
$var wire 1 &# ram_inst|ram~128_combout $end
$var wire 1 '# ram_inst|ram~86_regout $end
$var wire 1 (# ram_inst|ram~26_regout $end
$var wire 1 )# ram_inst|ram~46_regout $end
$var wire 1 *# ram_inst|ram~125_combout $end
$var wire 1 +# ram_inst|ram~126_combout $end
$var wire 1 ,# ram_inst|ram~129_combout $end
$var wire 1 -# ram_inst|ram~91feeder_combout $end
$var wire 1 .# ram_inst|ram~91_regout $end
$var wire 1 /# ram_inst|ram~31_regout $end
$var wire 1 0# ram_inst|ram~130_combout $end
$var wire 1 1# ram_inst|ram~131_combout $end
$var wire 1 2# ram_inst|ram~132_combout $end
$var wire 1 3# rom_inst|Mux0~0_combout $end
$var wire 1 4# ram_inst|ram~72_regout $end
$var wire 1 5# ram_inst|ram~57_regout $end
$var wire 1 6# ram_inst|ram~133_combout $end
$var wire 1 7# ram_inst|ram~134_combout $end
$var wire 1 8# ram_inst|ram~82feeder_combout $end
$var wire 1 9# ram_inst|ram~82_regout $end
$var wire 1 :# ram_inst|ram~77_regout $end
$var wire 1 ;# ram_inst|ram~140_combout $end
$var wire 1 <# ram_inst|ram~141_combout $end
$var wire 1 =# ram_inst|ram~42_regout $end
$var wire 1 ># ram_inst|ram~37_regout $end
$var wire 1 ?# ram_inst|ram~135_combout $end
$var wire 1 @# ram_inst|ram~136_combout $end
$var wire 1 A# ram_inst|ram~27_regout $end
$var wire 1 B# ram_inst|ram~32feeder_combout $end
$var wire 1 C# ram_inst|ram~32_regout $end
$var wire 1 D# ram_inst|ram~138_combout $end
$var wire 1 E# ram_inst|ram~139_combout $end
$var wire 1 F# ram_inst|ram~142_combout $end
$var wire 1 G# ram_inst|temp_address [3] $end
$var wire 1 H# ram_inst|temp_address [2] $end
$var wire 1 I# ram_inst|temp_address [1] $end
$var wire 1 J# ram_inst|temp_address [0] $end
$var wire 1 K# ram_inst|data_output [7] $end
$var wire 1 L# ram_inst|data_output [6] $end
$var wire 1 M# ram_inst|data_output [5] $end
$var wire 1 N# ram_inst|data_output [4] $end
$var wire 1 O# ram_inst|data_output [3] $end
$var wire 1 P# ram_inst|data_output [2] $end
$var wire 1 Q# ram_inst|data_output [1] $end
$var wire 1 R# ram_inst|data_output [0] $end
$var wire 1 S# address_rom [3] $end
$var wire 1 T# address_rom [2] $end
$var wire 1 U# address_rom [1] $end
$var wire 1 V# address_rom [0] $end
$var wire 1 W# address_ram [3] $end
$var wire 1 X# address_ram [2] $end
$var wire 1 Y# address_ram [1] $end
$var wire 1 Z# address_ram [0] $end
$var wire 1 [# rom_inst|data_output [7] $end
$var wire 1 \# rom_inst|data_output [6] $end
$var wire 1 ]# rom_inst|data_output [5] $end
$var wire 1 ^# rom_inst|data_output [4] $end
$var wire 1 _# rom_inst|data_output [3] $end
$var wire 1 `# rom_inst|data_output [2] $end
$var wire 1 a# rom_inst|data_output [1] $end
$var wire 1 b# rom_inst|data_output [0] $end
$var wire 1 c# counter [31] $end
$var wire 1 d# counter [30] $end
$var wire 1 e# counter [29] $end
$var wire 1 f# counter [28] $end
$var wire 1 g# counter [27] $end
$var wire 1 h# counter [26] $end
$var wire 1 i# counter [25] $end
$var wire 1 j# counter [24] $end
$var wire 1 k# counter [23] $end
$var wire 1 l# counter [22] $end
$var wire 1 m# counter [21] $end
$var wire 1 n# counter [20] $end
$var wire 1 o# counter [19] $end
$var wire 1 p# counter [18] $end
$var wire 1 q# counter [17] $end
$var wire 1 r# counter [16] $end
$var wire 1 s# counter [15] $end
$var wire 1 t# counter [14] $end
$var wire 1 u# counter [13] $end
$var wire 1 v# counter [12] $end
$var wire 1 w# counter [11] $end
$var wire 1 x# counter [10] $end
$var wire 1 y# counter [9] $end
$var wire 1 z# counter [8] $end
$var wire 1 {# counter [7] $end
$var wire 1 |# counter [6] $end
$var wire 1 }# counter [5] $end
$var wire 1 ~# counter [4] $end
$var wire 1 !$ counter [3] $end
$var wire 1 "$ counter [2] $end
$var wire 1 #$ counter [1] $end
$var wire 1 $$ counter [0] $end
$upscope $end
$upscope $end
$enddefinitions $end
#0
$dumpvars
0!
1"
1#
0$
0(
0'
0&
0%
0,
0+
0*
0)
04
03
02
01
00
0/
0.
0-
0<
0;
0:
09
08
07
06
05
x=
0>
1?
x@
1A
1B
1C
0D
0E
0F
0G
0H
1I
0J
0K
0L
0M
0N
0O
0P
0Q
0R
0S
0T
0U
0V
0W
0X
0Y
0Z
0[
0\
0]
0^
0_
0`
0a
0b
0c
0d
0e
0f
0g
0h
0i
0j
0k
0l
0m
0n
0o
0p
0q
0r
0s
1t
1u
0v
0w
0x
0y
0z
0{
0|
0}
0~
0!!
0"!
0#!
0$!
0%!
0&!
1'!
1(!
1)!
0*!
0+!
0,!
0-!
1.!
0/!
00!
11!
02!
13!
04!
05!
16!
07!
18!
09!
0:!
1;!
0<!
0=!
1>!
0?!
1@!
0A!
0B!
0C!
1D!
0E!
0F!
1G!
1H!
0I!
0J!
1K!
0L!
0M!
0N!
1O!
0P!
0Q!
1R!
0S!
1T!
0U!
0V!
1W!
0X!
0Y!
1Z!
0[!
0\!
1]!
0^!
0_!
0`!
0a!
1b!
0c!
1d!
0e!
1f!
1g!
0h!
0i!
1j!
1k!
1l!
0m!
0n!
0o!
0p!
0q!
0r!
0s!
0t!
0u!
0v!
0w!
0x!
0y!
1z!
0{!
0|!
0}!
0~!
0!"
0""
0#"
0$"
0%"
0&"
0'"
0("
0)"
0*"
0+"
0,"
0-"
1."
0/"
00"
01"
02"
03"
04"
05"
06"
07"
08"
09"
0:"
0;"
0<"
1="
0>"
0?"
0@"
0A"
0B"
0C"
0D"
0E"
0F"
0G"
0H"
0I"
0J"
0K"
0L"
0M"
0N"
0O"
0P"
0Q"
0R"
0S"
0T"
0U"
0V"
0W"
0X"
0Y"
0Z"
0["
1\"
0]"
0^"
0_"
0`"
0a"
0b"
0c"
0d"
0e"
0f"
0g"
0h"
0i"
0j"
0k"
0l"
0m"
0n"
0o"
0p"
0q"
0r"
0s"
0t"
0u"
0v"
1w"
0x"
0y"
0z"
0{"
0|"
0}"
0~"
0!#
0"#
0##
0$#
0%#
0&#
0'#
0(#
0)#
0*#
0+#
0,#
0-#
0.#
0/#
00#
01#
02#
03#
04#
05#
06#
07#
08#
09#
0:#
0;#
0<#
0=#
0>#
0?#
0@#
0A#
0B#
0C#
0D#
0E#
0F#
0J#
0I#
0H#
0G#
0R#
0Q#
0P#
0O#
0N#
zM#
zL#
zK#
0V#
0U#
0T#
0S#
0Z#
0Y#
0X#
0W#
0b#
0a#
0`#
0_#
0^#
z]#
z\#
z[#
0$$
0#$
0"$
0!$
0~#
0}#
0|#
0{#
0z#
0y#
0x#
0w#
0v#
0u#
0t#
0s#
0r#
0q#
0p#
0o#
0n#
0m#
0l#
0k#
0j#
0i#
0h#
0g#
0f#
0e#
0d#
0c#
$end
#5000
1$
1n!
0=
1/"
0z!
#10000
1!
0$
1%!
0n!
1&!
1=
0/"
1z!
1S#
1T#
1U#
1V#
1*!
13#
0l!
1m!
0k!
1+!
0)!
1)
1*
1+
1,
1h!
1i!
#15000
1$
1n!
0=
#20000
0!
0$
0%!
0n!
0&!
1=
#25000
1$
1n!
0=
#30000
1!
0$
1%!
0n!
1&!
1=
1^#
1$$
0*!
1B#
18#
1$!
1#!
1"!
1v!
0j!
0i!
1q!
0m!
1k!
0+!
1)!
18
0h!
1i!
#35000
1$
1n!
0=
1/"
0z!
#40000
0!
0$
0%!
0n!
0&!
1=
0/"
1z!
#45000
1$
1n!
0=
1/"
0z!
#50000
1!
0$
1%!
0n!
1&!
1=
0/"
1z!
0V#
1*!
1l
03#
1x"
1]"
1>"
1l!
1m!
0k!
1+!
0)!
1m
0,
1h!
1D#
0i!
1E#
1F#
#55000
1$
1n!
0=
#60000
0!
0$
0%!
0n!
0&!
1=
#65000
1$
1n!
0=
#70000
1!
0$
1%!
0n!
1&!
1=
1N#
0^#
1_#
1`#
1a#
1Z#
1#$
1b#
0$$
0*!
0B#
08#
0$!
0#!
0"!
1-#
1"#
1{"
1y"
1!!
1~
1q"
1d"
1^"
1}
1|
1W"
1L"
1J"
1F"
1{
1z
1N"
0."
1~!
0="
1r!
1y
1x
1w
1v
0v!
1j!
1i!
0m!
1k!
0+!
1)!
10
08
19
1:
1;
1(
1<
0h!
0i!
#75000
1$
1n!
0=
1O"
0z!
#80000
0!
0$
0%!
0n!
0&!
1=
0O"
1z!
#85000
1$
1n!
0=
1O"
0z!
#90000
1!
0$
1%!
0n!
1&!
1=
0O"
1z!
1l"
1P"
0U#
1V#
1*!
1b
1N
1Q"
0l!
1m!
0k!
1+!
0)!
1c
0+
1,
1R"
1h!
1}"
1i!
#95000
1$
1n!
0=
#100000
0!
0$
0%!
0n!
0&!
1=
#105000
1$
1n!
0=
#110000
1!
0$
1%!
0n!
1&!
1=
1J#
0Z#
1Y#
0b#
1$$
0*!
12#
1t"
1Z"
11"
0m
0N"
1+"
0~!
0y
0x
0w
0v
1v!
0j!
0i!
1,!
0q!
0m!
1k!
0+!
1)!
0(
1'
0<
1u"
1["
12"
0D#
1-!
0h!
1v"
1;"
0E#
1i!
1<"
0F#
#115000
1$
1n!
0=
1,"
0z!
#120000
0!
0$
0%!
0n!
0&!
1=
0,"
1z!
#125000
1$
1n!
0=
1,"
0z!
#130000
1!
0$
1%!
0n!
1&!
1=
0,"
1z!
0N#
1O#
1(#
1P#
1r"
1Q#
1E"
1R#
0V#
1*!
1*#
1H"
0>"
1l!
1m!
0k!
1+!
0)!
00
11
12
13
14
0,
1+#
1I"
1h!
0i!
#135000
1$
1n!
0=
#140000
0!
0$
0%!
0n!
0&!
1=
#145000
1$
1n!
0=
#150000
1!
0$
1%!
0n!
1&!
1=
0a#
0J#
1I#
1Z#
0#$
1b#
0$$
1"$
0*!
0W"
0L"
0J"
0F"
0{
0z
02#
1,#
0t"
1s"
0Z"
01"
0["
02"
1m"
0+"
1~!
1="
0r!
0,!
1y
1x
1w
1v
0v!
1j!
1i!
0\"
0.!
0-!
0m!
1k!
0+!
1)!
0;
1(
1<
12#
0u"
1t"
1["
0;"
1.!
1-!
1o!
0h!
0v"
1u"
0<"
0o!
0i!
1v"
#155000
1$
1n!
0=
1n"
0z!
#160000
0!
0$
0%!
0n!
0&!
1=
0n"
1z!
#165000
1$
1n!
0=
1n"
0z!
#170000
1!
0$
1%!
0n!
1&!
1=
0n"
1z!
1/#
1o"
0T#
1U#
0R#
1V#
1*!
1O
10#
0l!
1m!
0k!
1+!
0)!
0*
1+
04
1,
11#
1h!
1i!
#175000
1$
1n!
0=
#180000
0!
0$
0%!
0n!
0&!
1=
#185000
1$
1n!
0=
#190000
1!
0$
1%!
0n!
1&!
1=
1J#
0Z#
1X#
0Y#
0b#
1$$
0*!
1?#
1;#
16#
1j"
1f"
1Z"
19"
11"
1)"
1!"
1m
1\
0m"
16"
0~!
0y
0x
0w
0v
1v!
0j!
0i!
1q!
0m!
1k!
0+!
1)!
0(
1&
0'
0<
0["
12"
0h!
1;"
1i!
1<"
#195000
1$
1n!
0=
17"
0z!
#200000
0!
0$
0%!
0n!
0&!
1=
07"
1z!
#205000
1$
1n!
0=
17"
0z!
#210000
1!
0$
1%!
0n!
1&!
1=
07"
1z!
1##
0Q#
1R#
0V#
1*!
1[
0]"
1>"
1l!
1m!
0k!
1+!
0)!
03
14
0,
1h!
0i!
#215000
1$
1n!
0=
#220000
0!
0$
0%!
0n!
0&!
1=
#225000
1$
1n!
0=
#230000
1!
0$
1%!
0n!
1&!
1=
0`#
1a#
1H#
0J#
0I#
1Z#
1#$
1b#
0$$
0*!
0q"
0d"
0^"
0}
0|
1W"
1L"
1J"
1F"
1{
1z
01#
00#
0*#
1%#
0}"
0v"
0u"
0Q"
0I"
0H"
0;"
0c
1@#
0?#
1<#
0;#
06#
0,#
0s"
1k"
0j"
0f"
0Z"
1:"
09"
01"
1*"
0)"
0!"
1D#
17#
1g"
1["
1""
1^
06"
13"
1~!
0="
1r!
1y
1x
1w
1v
0v!
1j!
1i!
0m!
1k!
0+!
1)!
0:
1;
1(
1<
02#
0+#
1&#
1v"
0R"
0["
0<"
1E#
0@#
0<#
07#
0t"
0k"
0g"
1;"
0:"
02"
0*"
0""
0h!
1,#
1F#
0E#
1<"
0;"
0i!
12#
0F#
0<"
#235000
1$
1n!
0=
14"
0z!
#240000
0!
0$
0%!
0n!
0&!
1=
04"
1z!
#245000
1$
1n!
0=
14"
0z!
#250000
1!
0$
1%!
0n!
1&!
1=
04"
1z!
1|"
1M"
0U#
0R#
15"
1V#
1*!
1}"
1Q"
0l!
1m!
0k!
1+!
0)!
0+
04
1,
1R"
1h!
1i!
#255000
1$
1n!
0=
#260000
0!
0$
0%!
0n!
0&!
1=
#265000
1$
1n!
0=
#270000
1!
0$
1%!
0n!
1&!
1=
1J#
0Z#
1Y#
0b#
1$$
0*!
02#
0,#
1t"
1Z"
1:"
11"
0m
0\
1?"
03"
0~!
0y
0x
0w
0v
1v!
0j!
0i!
1,!
0q!
0m!
1k!
0+!
1)!
0(
1'
0<
12#
1["
1;"
12"
0D#
0^
0.!
0-!
0h!
1<"
0v"
1o!
1i!
#275000
1$
1n!
0=
1@"
0z!
#280000
0!
0$
0%!
0n!
0&!
1=
0@"
1z!
#285000
1$
1n!
0=
1@"
0z!
#290000
1!
0$
1%!
0n!
1&!
1=
0@"
1z!
1)#
0P#
1Q#
1A"
1R#
0V#
1*!
1*#
1I"
0>"
1l!
1m!
0k!
1+!
0)!
02
13
14
0,
1+#
1h!
0i!
#295000
1$
1n!
0=
#300000
0!
0$
0%!
0n!
0&!
1=
#305000
1$
1n!
0=
#310000
1!
0$
1%!
0n!
1&!
1=
0a#
0J#
1I#
1Z#
0#$
1!$
1b#
0$$
0"$
0*!
0W"
0L"
0J"
0F"
0{
0z
02#
1,#
0t"
1s"
0Z"
0:"
01"
0["
0?"
1~!
1r
1="
0r!
0,!
0w"
1p!
1/!
0o!
1y
1x
1w
1v
0v!
1j!
1i!
1\"
1.!
1-!
0m!
1k!
0+!
1)!
0;
1(
1<
12#
1t"
1["
0;"
02"
0-!
10!
0/!
1o!
0h!
0<"
00!
0i!
#315000
1$
1n!
0=
0z!
1s
#320000
0!
0$
0%!
0n!
0&!
1=
1z!
0s
#325000
1$
1n!
0=
0z!
1s
#330000
1!
0$
1%!
0n!
1&!
1=
1z!
0s
0S#
1T#
1U#
0R#
1V#
1*!
1e
1M
0l!
1m!
0k!
1+!
0)!
11#
0)
1*
1+
04
1,
1h!
1i!
#335000
1$
1n!
0=
#340000
0!
0$
0%!
0n!
0&!
1=
#345000
1$
1n!
0=
#350000
1!
0$
1%!
0n!
1&!
1=
1J#
0Z#
0X#
0Y#
1W#
0b#
1$$
0*!
1?#
1;#
16#
1j"
1f"
1Z"
1:"
19"
11"
1)"
1!"
1m
1\
0~!
1{!
0r
0y
0x
0w
0v
1v!
0j!
0i!
1q!
0m!
1k!
0+!
1)!
0(
0&
0'
1%
0<
0["
1;"
12"
0h!
1<"
1i!
#355000
1$
1n!
0=
1|!
0z!
#360000
0!
0$
0%!
0n!
0&!
1=
0|!
1z!
#365000
1$
1n!
0=
1|!
0z!
#370000
1!
0$
1%!
0n!
1&!
1=
0|!
1z!
1~"
0Q#
1R#
0V#
1*!
0x"
1]"
1>"
1l!
1m!
0k!
1+!
0)!
03
14
0,
1h!
0i!
#375000
1$
1n!
0=
#380000
0!
0$
0%!
0n!
0&!
1=
#385000
1$
1n!
0=
