mux2x1-8bits/simulation/qsim/mux8b.msim.vcd
$comment
	File created using the following command:
		vcd file mux8b.msim.vcd -direction
$end
$date
	Sun Apr 07 18:32:44 2024
$end
$version
	ModelSim Version 10.1d
$end
$timescale
	1ps
$end
$scope module mux8b_vlg_vec_tst $end
$var reg 4 ! en0 [3:0] $end
$var reg 4 " en1 [3:0] $end
$var reg 1 # s $end
$var wire 1 $ d [3] $end
$var wire 1 % d [2] $end
$var wire 1 & d [1] $end
$var wire 1 ' d [0] $end
$var wire 1 ( sampler $end
$scope module i1 $end
$var wire 1 ) gnd $end
$var wire 1 * vcc $end
$var wire 1 + unknown $end
$var tri1 1 , devclrn $end
$var tri1 1 - devpor $end
$var tri1 1 . devoe $end
$var wire 1 / d[0]~output_o $end
$var wire 1 0 d[1]~output_o $end
$var wire 1 1 d[2]~output_o $end
$var wire 1 2 d[3]~output_o $end
$var wire 1 3 en1[0]~input_o $end
$var wire 1 4 s~input_o $end
$var wire 1 5 en0[0]~input_o $end
$var wire 1 6 d~0_combout $end
$var wire 1 7 en0[1]~input_o $end
$var wire 1 8 en1[1]~input_o $end
$var wire 1 9 d~1_combout $end
$var wire 1 : en0[2]~input_o $end
$var wire 1 ; en1[2]~input_o $end
$var wire 1 < d~2_combout $end
$var wire 1 = en0[3]~input_o $end
$var wire 1 > en1[3]~input_o $end
$var wire 1 ? d~3_combout $end
$upscope $end
$upscope $end
$enddefinitions $end
#0
$dumpvars
b0 !
b0 "
1#
0'
0&
0%
0$
x(
0)
1*
x+
1,
1-
1.
0/
00
01
02
03
14
05
06
07
08
09
0:
0;
0<
0=
0>
0?
$end
#50000
b1 !
15
0(
#100000
b11 !
b1 "
0#
b10 !
13
05
17
04
1(
19
10
1&
#150000
b11 !
15
0(
16
1/
1'
#200000
b111 !
b11 "
b101 !
b10 "
b100 !
03
18
05
07
1:
1(
06
09
1<
0/
00
11
0'
0&
1%
#250000
1#
b101 !
14
15
0(
0<
19
01
10
0%
1&
#300000
b111 !
b11 "
b110 !
13
05
17
1(
16
1/
1'
#350000
0#
b111 !
04
15
0(
1<
11
1%
#400000
b1111 !
b111 "
b1011 !
b101 "
b1001 !
b100 "
1#
b1000 !
03
08
1;
05
07
0:
1=
14
1(
06
09
0/
00
0'
0&
#450000
0#
b1001 !
04
15
0(
1?
0<
16
12
01
1/
1$
0%
1'
#500000
b1011 !
b101 "
b1010 !
13
05
17
1(
06
19
0/
10
0'
1&
#550000
b1011 !
15
0(
16
1/
1'
#600000
b1111 !
b111 "
1#
b1101 !
b110 "
b1100 !
03
18
05
07
1:
14
1(
06
1<
0?
0/
11
02
0'
1%
0$
#650000
0#
b1101 !
04
15
0(
1?
09
16
12
00
1/
1$
0&
1'
#700000
b1111 !
b111 "
b1110 !
13
05
17
1(
06
19
0/
10
0'
1&
#750000
b1111 !
15
0(
16
1/
1'
#800000
b1111 "
b111 !
b1011 "
b11 !
b1001 "
1#
b1 !
b1000 "
b0 !
05
07
0:
0=
03
08
0;
1>
14
1(
06
09
0<
0/
00
01
0'
0&
0%
#850000
0#
b1 !
04
15
0(
0?
16
02
1/
0$
1'
#900000
b11 !
b1001 "
1#
b10 !
13
05
17
14
1(
1?
12
1$
#950000
0#
b11 !
04
15
0(
0?
19
02
10
0$
1&
