registrador-4bits-flipflop/simulation/qsim/regFlipflop.msim.vcd
$comment
	File created using the following command:
		vcd file regFlipflop.msim.vcd -direction
$end
$date
	Tue Apr 16 16:32:26 2024
$end
$version
	ModelSim Version 10.1d
$end
$timescale
	1ps
$end
$scope module regFlipflop_vlg_vec_tst $end
$var reg 1 ! c $end
$var reg 1 " en0 $end
$var reg 1 # en1 $end
$var reg 1 $ en2 $end
$var reg 1 % en3 $end
$var wire 1 & q0 $end
$var wire 1 ' q1 $end
$var wire 1 ( q2 $end
$var wire 1 ) q3 $end
$var wire 1 * sampler $end
$scope module i1 $end
$var wire 1 + gnd $end
$var wire 1 , vcc $end
$var wire 1 - unknown $end
$var tri1 1 . devclrn $end
$var tri1 1 / devpor $end
$var tri1 1 0 devoe $end
$var wire 1 1 q3~output_o $end
$var wire 1 2 q2~output_o $end
$var wire 1 3 q1~output_o $end
$var wire 1 4 q0~output_o $end
$var wire 1 5 c~input_o $end
$var wire 1 6 c~inputclkctrl_outclk $end
$var wire 1 7 en3~input_o $end
$var wire 1 8 u1|q~feeder_combout $end
$var wire 1 9 u1|q~q $end
$var wire 1 : en2~input_o $end
$var wire 1 ; u2|q~feeder_combout $end
$var wire 1 < u2|q~q $end
$var wire 1 = en1~input_o $end
$var wire 1 > u3|q~q $end
$var wire 1 ? en0~input_o $end
$var wire 1 @ u4|q~feeder_combout $end
$var wire 1 A u4|q~q $end
$upscope $end
$upscope $end
$enddefinitions $end
#0
$dumpvars
0!
0"
0#
0$
0%
0&
0'
0(
0)
x*
0+
1,
x-
1.
1/
10
01
02
03
04
05
06
07
08
09
0:
0;
0<
0=
0>
0?
0@
0A
$end
#50000
1!
15
16
0*
#100000
1"
0!
1?
05
06
1*
1@
#150000
1!
15
16
0*
1A
14
1&
#200000
1#
0"
0!
1=
0?
05
06
1*
0@
#250000
1!
15
16
0*
0A
1>
04
13
0&
1'
#300000
1"
0!
1?
05
06
1*
1@
#350000
1!
15
16
0*
1A
14
1&
#400000
1$
0#
0"
0!
1:
0=
0?
05
06
1*
1;
0@
#450000
1!
15
16
0*
0A
0>
1<
04
03
12
0&
0'
1(
#500000
1"
0!
1?
05
06
1*
1@
#550000
1!
15
16
0*
1A
14
1&
#600000
1#
0"
0!
1=
0?
05
06
1*
0@
#650000
1!
15
16
0*
0A
1>
04
13
0&
1'
#700000
1"
0!
1?
05
06
1*
1@
#750000
1!
15
16
0*
1A
14
1&
#800000
1%
0$
0#
0"
0!
17
0:
0=
0?
05
06
1*
18
0;
0@
#850000
1!
15
16
0*
0A
0>
0<
19
04
03
02
11
0&
0'
0(
1)
#900000
1"
0!
1?
05
06
1*
1@
#950000
1!
15
16
0*
1A
14
1&
