mux2x1-portas-logicas/simulation/qsim/mux2x1pl.msim.vcd
$comment
	File created using the following command:
		vcd file mux2x1pl.msim.vcd -direction
$end
$date
	Fri Apr 05 09:34:59 2024
$end
$version
	ModelSim Version 10.1d
$end
$timescale
	1ps
$end
$scope module mux2x1pl_vlg_vec_tst $end
$var reg 1 ! I0 $end
$var reg 1 " I1 $end
$var reg 1 # S0 $end
$var wire 1 $ d $end
$var wire 1 % sampler $end
$scope module i1 $end
$var wire 1 & gnd $end
$var wire 1 ' vcc $end
$var wire 1 ( unknown $end
$var tri1 1 ) devclrn $end
$var tri1 1 * devpor $end
$var tri1 1 + devoe $end
$var wire 1 , S0~combout $end
$var wire 1 - I1~combout $end
$var wire 1 . I0~combout $end
$var wire 1 / d~0_combout $end
$upscope $end
$upscope $end
$enddefinitions $end
#0
$dumpvars
0!
0"
0#
0$
x%
0&
1'
x(
1)
1*
1+
0,
0-
0.
0/
$end
#50000
1!
1.
0%
1/
1$
#100000
1"
0!
1-
0.
1%
0/
0$
#150000
1#
1!
1,
1.
0%
1/
1$
#200000
0"
0#
0!
0-
0,
0.
1%
0/
0$
#250000
1!
1.
0%
1/
1$
#300000
1"
0!
1-
0.
1%
0/
0$
#350000
1#
1!
1,
1.
0%
1/
1$
#400000
0"
0#
0!
0-
0,
0.
1%
0/
0$
#450000
1#
1!
1,
1.
0%
#500000
1"
0#
0!
1-
0,
0.
1%
#550000
1!
1.
0%
1/
1$
#600000
0"
0!
0-
0.
1%
0/
0$
#650000
1!
1.
0%
1/
1$
#700000
1"
0!
1-
0.
1%
0/
0$
#750000
1!
1.
0%
1/
1$
#800000
0"
0!
0-
0.
1%
0/
0$
#850000
1#
1!
1,
1.
0%
#900000
1"
0#
0!
1-
0,
0.
1%
#950000
1!
1.
0%
1/
1$
