pacemaker/simulation/qsim/pacemaker.msim.vcd
$comment
	File created using the following command:
		vcd file pacemaker.msim.vcd -direction
$end
$date
	Sun Apr 21 09:15:39 2024
$end
$version
	ModelSim Version 10.1d
$end
$timescale
	1ps
$end
$scope module pacemaker_vlg_vec_tst $end
$var reg 1 ! clk $end
$var reg 1 " sa $end
$var reg 1 # sv $end
$var wire 1 $ pa $end
$var wire 1 % pv $end
$var wire 1 & sampler $end
$scope module i1 $end
$var wire 1 ' gnd $end
$var wire 1 ( vcc $end
$var wire 1 ) unknown $end
$var tri1 1 * devclrn $end
$var tri1 1 + devpor $end
$var tri1 1 , devoe $end
$var wire 1 - clk~input_o $end
$var wire 1 . clk~inputclkctrl_outclk $end
$var wire 1 / pa~output_o $end
$var wire 1 0 pv~output_o $end
$var wire 1 1 temporizadores|ffd_cont_f_1|qS~0_combout $end
$var wire 1 2 temporizadores|ffd_cont_f_0|qS~0_combout $end
$var wire 1 3 temporizadores|ffd_cont_f_0|qS~q $end
$var wire 1 4 temporizadores|sig_comb~combout $end
$var wire 1 5 temporizadores|sig_clr~0_combout $end
$var wire 1 6 temporizadores|ffd_cont_f_1|qS~q $end
$var wire 1 7 temporizadores|ffd_cont_f_2|qS~0_combout $end
$var wire 1 8 temporizadores|ffd_cont_f_2|qS~q $end
$var wire 1 9 temporizadores|ffd_cont_f_3|qS~0_combout $end
$var wire 1 : temporizadores|ffd_cont_f_3|qS~q $end
$var wire 1 ; sv~input_o $end
$var wire 1 < bloco_controle|mde_0|n[0]~1_combout $end
$var wire 1 = bloco_controle|mde_0|n[0]~2_combout $end
$var wire 1 > bloco_controle|reg_0|ffd_2|qS~q $end
$var wire 1 ? sa~input_o $end
$var wire 1 @ temporizadores|zv~combout $end
$var wire 1 A bloco_controle|mde_0|n[0]~3_combout $end
$var wire 1 B bloco_controle|mde_0|n[0]~4_combout $end
$var wire 1 C bloco_controle|reg_0|ffd_0|qS~q $end
$var wire 1 D bloco_controle|mde_0|n~0_combout $end
$var wire 1 E bloco_controle|reg_0|ffd_1|qS~q $end
$var wire 1 F bloco_controle|mde_0|Pa~combout $end
$var wire 1 G bloco_controle|mde_0|Pv~combout $end
$var wire 1 H bloco_controle|mde_0|n [2] $end
$var wire 1 I bloco_controle|mde_0|n [1] $end
$var wire 1 J bloco_controle|mde_0|n [0] $end
$upscope $end
$upscope $end
$enddefinitions $end
#0
$dumpvars
0!
0"
0#
0$
0%
x&
0'
1(
x)
1*
1+
1,
0-
0.
0/
00
01
12
03
04
05
06
07
08
09
0:
0;
0<
0=
0>
0?
0@
1A
1B
0C
0D
0E
0F
0G
zJ
0I
0H
$end
#12500
1!
1-
1.
0&
1C
13
1D
02
11
#25000
0!
0-
0.
1&
#37500
1!
1-
1.
0&
16
03
12
#50000
0!
0-
0.
1&
#62500
1!
1-
1.
0&
13
17
02
01
#75000
0!
0-
0.
1&
#87500
1!
1-
1.
0&
18
06
03
1@
1<
12
1I
0A
0B
#100000
1"
0!
1?
0-
0.
1&
1A
1B
#112500
1!
1-
1.
0&
1E
13
0D
0A
1H
15
0@
0<
14
02
11
0I
0B
03
08
07
04
12
01
#120000
0"
0?
1&
#125000
0!
0-
0.
0&
#137500
1!
1-
1.
1&
0E
0C
1>
05
#150000
0!
0-
0.
0&
#162500
1!
1-
1.
1&
13
02
11
#175000
0!
0-
0.
0&
#187500
1!
1-
1.
1&
16
03
12
#200000
0!
0-
0.
0&
#212500
1!
1-
1.
1&
13
17
02
01
#225000
0!
0-
0.
0&
#237500
1!
1-
1.
1&
18
06
03
1@
1<
12
1=
1B
#250000
0!
0-
0.
0&
#260000
1#
1;
1&
0H
0<
0=
0B
#262500
1!
1-
1.
0&
0>
13
1B
0@
14
02
11
1A
15
03
08
07
04
12
01
05
#275000
0!
0-
0.
1&
#280000
0#
0;
0&
#287500
1!
1-
1.
1&
1C
13
1D
02
11
#300000
0!
0-
0.
0&
#312500
1!
1-
1.
1&
16
03
12
#325000
0!
0-
0.
0&
#337500
1!
1-
1.
1&
13
17
02
01
#350000
0!
0-
0.
0&
#360000
1"
1?
1&
1I
#362500
1!
1-
1.
0&
1E
18
06
03
0D
0A
1H
15
1@
1<
12
0I
0B
08
0@
0<
07
#375000
0!
0-
0.
1&
#380000
0"
0?
0&
#387500
1!
1-
1.
1&
0E
0C
1>
05
#400000
0!
0-
0.
0&
#412500
1!
1-
1.
1&
13
02
11
#425000
0!
0-
0.
0&
#437500
1!
1-
1.
1&
16
03
12
#450000
0!
0-
0.
0&
#462500
1!
1-
1.
1&
13
17
02
01
#475000
0!
0-
0.
0&
#487500
1!
1-
1.
1&
18
06
03
1@
1<
12
1=
1B
#500000
0!
0-
0.
0&
#512500
1!
1-
1.
1&
1C
13
0H
0=
0@
0<
14
02
11
1G
0B
15
10
1%
03
08
07
04
12
01
05
#525000
0!
0-
0.
0&
#537500
1!
1-
1.
1&
0C
0>
13
1B
1A
02
11
0G
00
0%
#550000
0!
0-
0.
0&
#562500
1!
1-
1.
1&
1C
16
03
1D
12
#575000
0!
0-
0.
0&
#587500
1!
1-
1.
1&
13
17
02
01
#600000
0!
0-
0.
0&
#612500
1!
1-
1.
1&
18
06
03
1@
1<
12
1I
0A
0B
#625000
0!
0-
0.
0&
#637500
1!
1-
1.
1&
1E
0C
13
0D
1B
1=
0@
0<
14
02
11
1F
0=
15
1/
1$
03
08
07
04
12
01
05
#650000
0!
0-
0.
0&
#662500
1!
1-
1.
1&
1C
13
0B
1H
15
02
11
0F
0I
0/
0$
03
12
01
#675000
0!
0-
0.
0&
#687500
1!
1-
1.
1&
0E
0C
1>
05
#700000
0!
0-
0.
0&
#712500
1!
1-
1.
1&
13
02
11
#725000
0!
0-
0.
0&
#737500
1!
1-
1.
1&
16
03
12
#750000
0!
0-
0.
0&
#762500
1!
1-
1.
1&
13
17
02
01
#775000
0!
0-
0.
0&
#787500
1!
1-
1.
1&
18
06
03
1@
1<
12
1=
1B
#800000
0!
0-
0.
0&
#812500
1!
1-
1.
1&
1C
13
0H
0=
0@
0<
14
02
11
1G
0B
15
10
1%
03
08
07
04
12
01
05
#825000
0!
0-
0.
0&
#837500
1!
1-
1.
1&
0C
0>
13
1B
1A
02
11
0G
00
0%
#850000
0!
0-
0.
0&
#862500
1!
1-
1.
1&
1C
16
03
1D
12
#875000
0!
0-
0.
0&
#887500
1!
1-
1.
1&
13
17
02
01
#900000
0!
0-
0.
0&
#912500
1!
1-
1.
1&
18
06
03
1@
1<
12
1I
0A
0B
#925000
0!
0-
0.
0&
#937500
1!
1-
1.
1&
1E
0C
13
0D
1B
1=
0@
0<
14
02
11
1F
0=
15
1/
1$
03
08
07
04
12
01
05
#950000
0!
0-
0.
0&
#962500
1!
1-
1.
1&
1C
13
0B
1H
15
02
11
0F
0I
0/
0$
03
12
01
#975000
0!
0-
0.
0&
#987500
1!
1-
1.
1&
0E
0C
1>
05
